{"failedCount":1,"prefixedPath":"classpath:feature\/demoApi.feature","packageQualifiedName":"feature.demoApi","loopIndex":-1,"relativePath":"feature\/demoApi.feature","scenarioResults":[{"sectionIndex":0,"stepResults":[{"result":{"nanos":489300,"millis":0.4893,"status":"passed"},"step":{"background":true,"line":3,"prefix":"*","index":0,"text":"url 'https:\/\/reqres.in\/'"}},{"result":{"nanos":373600,"millis":0.3736,"status":"passed"},"step":{"background":true,"line":4,"prefix":"*","index":1,"text":"header Accept = 'application\/json'"}},{"result":{"nanos":220200,"millis":0.2202,"status":"passed"},"step":{"line":8,"prefix":"Given","index":0,"text":"path 'api\/users'"}},{"result":{"nanos":19825000,"millis":19.825,"status":"passed"},"step":{"endLine":15,"line":9,"prefix":"And","docString":"{\n    \"name\": \"Komal\",\n    \"job\": \"Tester\"\n}","index":1,"text":"request"}},{"result":{"nanos":494430100,"millis":494.4301,"status":"passed"},"step":{"line":16,"prefix":"When","index":2,"text":"method POST"},"stepLog":"17:24:09.679 request:\n1 > POST https:\/\/reqres.in\/api\/users\n1 > Accept: application\/json\n1 > Content-Type: application\/json; charset=UTF-8\n1 > Content-Length: 31\n1 > Host: reqres.in\n1 > Connection: Keep-Alive\n1 > User-Agent: Apache-HttpClient\/4.5.14 (Java\/17.0.9)\n1 > Accept-Encoding: gzip,deflate\n{\"name\":\"Komal\",\"job\":\"Tester\"}\n\n17:24:10.131 response time in milliseconds: 451\n1 < 201\n1 < Date: Sat, 24 Feb 2024 11:54:09 GMT\n1 < Content-Type: application\/json; charset=utf-8\n1 < Content-Length: 81\n1 < Connection: keep-alive\n1 < Report-To: {\"group\":\"heroku-nel\",\"max_age\":3600,\"endpoints\":[{\"url\":\"https:\/\/nel.heroku.com\/reports?ts=1708775649&sid=c4c9725f-1ab0-44d8-820f-430df2718e11&s=QFs8j%2FYVWoG6CPHOycZX6nG39dsBRNitc4FRrBHKtQ4%3D\"}]}\n1 < Reporting-Endpoints: heroku-nel=https:\/\/nel.heroku.com\/reports?ts=1708775649&sid=c4c9725f-1ab0-44d8-820f-430df2718e11&s=QFs8j%2FYVWoG6CPHOycZX6nG39dsBRNitc4FRrBHKtQ4%3D\n1 < Nel: {\"report_to\":\"heroku-nel\",\"max_age\":3600,\"success_fraction\":0.005,\"failure_fraction\":0.05,\"response_headers\":[\"Via\"]}\n1 < X-Powered-By: Express\n1 < Access-Control-Allow-Origin: *\n1 < Etag: W\/\"51-JAGSRRBJWcB8QJHpDwtaY1BjPGM\"\n1 < Via: 1.1 vegur\n1 < CF-Cache-Status: DYNAMIC\n1 < Server: cloudflare\n1 < CF-RAY: 85a7832278441bd8-BOM\n{\"name\":\"Komal\",\"job\":\"Tester\",\"id\":\"460\",\"createdAt\":\"2024-02-24T11:54:09.888Z\"}\n\n"},{"result":{"nanos":8500,"millis":0.0085,"status":"passed"},"step":{"line":17,"prefix":"Then","index":3,"text":"status 201"}},{"result":{"nanos":21707500,"millis":21.7075,"status":"passed"},"step":{"line":18,"prefix":"And","index":4,"text":"print response"},"stepLog":"17:24:10.153 [print] {\n  \"name\": \"Komal\",\n  \"job\": \"Tester\",\n  \"id\": \"460\",\n  \"createdAt\": \"2024-02-24T11:54:09.888Z\"\n}\n \n"},{"result":{"nanos":14497700,"millis":14.4977,"status":"passed"},"step":{"line":19,"prefix":"And","index":5,"text":"match $.name == 'Komal'"}},{"result":{"nanos":1116100,"millis":1.1161,"status":"passed"},"step":{"line":20,"prefix":"And","index":6,"text":"match $.job == 'Tester'"}},{"result":{"nanos":1171500,"millis":1.1715,"status":"passed"},"step":{"line":21,"prefix":"And","index":7,"text":"match $.id == '#present'"}},{"result":{"nanos":656500,"millis":0.6565,"status":"passed"},"step":{"line":22,"prefix":"*","index":8,"text":"def id =  $.id"}}],"executorName":"main","line":7,"name":"post new user","description":"","durationMillis":554.496,"startTime":1708775649616,"failed":false,"refId":"[1:7]","endTime":1708775650171,"exampleIndex":-1},{"sectionIndex":1,"stepResults":[{"result":{"nanos":196800,"millis":0.1968,"status":"passed"},"step":{"background":true,"line":3,"prefix":"*","index":0,"text":"url 'https:\/\/reqres.in\/'"}},{"result":{"nanos":131500,"millis":0.1315,"status":"passed"},"step":{"background":true,"line":4,"prefix":"*","index":1,"text":"header Accept = 'application\/json'"}},{"result":{"nanos":77800,"millis":0.0778,"status":"passed"},"step":{"line":25,"prefix":"Given","index":0,"text":"path 'api\/users'"}},{"result":{"nanos":203970200,"millis":203.9702,"status":"passed"},"step":{"line":26,"prefix":"When","index":1,"text":"method GET"},"stepLog":"17:24:10.179 request:\n1 > GET https:\/\/reqres.in\/api\/users\n1 > Accept: application\/json\n1 > Host: reqres.in\n1 > Connection: Keep-Alive\n1 > User-Agent: Apache-HttpClient\/4.5.14 (Java\/17.0.9)\n1 > Accept-Encoding: gzip,deflate\n\n\n17:24:10.381 response time in milliseconds: 201\n1 < 200\n1 < Date: Sat, 24 Feb 2024 11:54:10 GMT\n1 < Content-Type: application\/json; charset=utf-8\n1 < Transfer-Encoding: chunked\n1 < Connection: keep-alive\n1 < Report-To: {\"group\":\"heroku-nel\",\"max_age\":3600,\"endpoints\":[{\"url\":\"https:\/\/nel.heroku.com\/reports?ts=1707279068&sid=c4c9725f-1ab0-44d8-820f-430df2718e11&s=3kMiQjbGyLjlyEpvW%2FBdHtQWEn6Me5oE0JCqLowkN70%3D\"}]}\n1 < Reporting-Endpoints: heroku-nel=https:\/\/nel.heroku.com\/reports?ts=1707279068&sid=c4c9725f-1ab0-44d8-820f-430df2718e11&s=3kMiQjbGyLjlyEpvW%2FBdHtQWEn6Me5oE0JCqLowkN70%3D\n1 < Nel: {\"report_to\":\"heroku-nel\",\"max_age\":3600,\"success_fraction\":0.005,\"failure_fraction\":0.05,\"response_headers\":[\"Via\"]}\n1 < X-Powered-By: Express\n1 < Access-Control-Allow-Origin: *\n1 < Etag: W\/\"3e4-2RLXvr5wTg9YQ6aH95CkYoFNuO8\"\n1 < Via: 1.1 vegur\n1 < Cache-Control: max-age=14400\n1 < CF-Cache-Status: HIT\n1 < Age: 4903\n1 < Vary: Accept-Encoding\n1 < Server: cloudflare\n1 < CF-RAY: 85a78325fd198563-BOM\n{\"page\":1,\"per_page\":6,\"total\":12,\"total_pages\":2,\"data\":[{\"id\":1,\"email\":\"george.bluth@reqres.in\",\"first_name\":\"George\",\"last_name\":\"Bluth\",\"avatar\":\"https:\/\/reqres.in\/img\/faces\/1-image.jpg\"},{\"id\":2,\"email\":\"janet.weaver@reqres.in\",\"first_name\":\"Janet\",\"last_name\":\"Weaver\",\"avatar\":\"https:\/\/reqres.in\/img\/faces\/2-image.jpg\"},{\"id\":3,\"email\":\"emma.wong@reqres.in\",\"first_name\":\"Emma\",\"last_name\":\"Wong\",\"avatar\":\"https:\/\/reqres.in\/img\/faces\/3-image.jpg\"},{\"id\":4,\"email\":\"eve.holt@reqres.in\",\"first_name\":\"Eve\",\"last_name\":\"Holt\",\"avatar\":\"https:\/\/reqres.in\/img\/faces\/4-image.jpg\"},{\"id\":5,\"email\":\"charles.morris@reqres.in\",\"first_name\":\"Charles\",\"last_name\":\"Morris\",\"avatar\":\"https:\/\/reqres.in\/img\/faces\/5-image.jpg\"},{\"id\":6,\"email\":\"tracey.ramos@reqres.in\",\"first_name\":\"Tracey\",\"last_name\":\"Ramos\",\"avatar\":\"https:\/\/reqres.in\/img\/faces\/6-image.jpg\"}],\"support\":{\"url\":\"https:\/\/reqres.in\/#support-heading\",\"text\":\"To keep ReqRes free, contributions towards server costs are appreciated!\"}}\n\n"},{"result":{"nanos":8700,"millis":0.0087,"status":"passed"},"step":{"line":27,"prefix":"Then","index":2,"text":"status 200"}},{"result":{"nanos":715700,"millis":0.7157,"status":"passed"},"step":{"line":28,"prefix":"And","index":3,"text":"print response"},"stepLog":"17:24:10.383 [print] {\n  \"page\": 1,\n  \"per_page\": 6,\n  \"total\": 12,\n  \"total_pages\": 2,\n  \"data\": [\n    {\n      \"id\": 1,\n      \"email\": \"george.bluth@reqres.in\",\n      \"first_name\": \"George\",\n      \"last_name\": \"Bluth\",\n      \"avatar\": \"https:\/\/reqres.in\/img\/faces\/1-image.jpg\"\n    },\n    {\n      \"id\": 2,\n      \"email\": \"janet.weaver@reqres.in\",\n      \"first_name\": \"Janet\",\n      \"last_name\": \"Weaver\",\n      \"avatar\": \"https:\/\/reqres.in\/img\/faces\/2-image.jpg\"\n    },\n    {\n      \"id\": 3,\n      \"email\": \"emma.wong@reqres.in\",\n      \"first_name\": \"Emma\",\n      \"last_name\": \"Wong\",\n      \"avatar\": \"https:\/\/reqres.in\/img\/faces\/3-image.jpg\"\n    },\n    {\n      \"id\": 4,\n      \"email\": \"eve.holt@reqres.in\",\n      \"first_name\": \"Eve\",\n      \"last_name\": \"Holt\",\n      \"avatar\": \"https:\/\/reqres.in\/img\/faces\/4-image.jpg\"\n    },\n    {\n      \"id\": 5,\n      \"email\": \"charles.morris@reqres.in\",\n      \"first_name\": \"Charles\",\n      \"last_name\": \"Morris\",\n      \"avatar\": \"https:\/\/reqres.in\/img\/faces\/5-image.jpg\"\n    },\n    {\n      \"id\": 6,\n      \"email\": \"tracey.ramos@reqres.in\",\n      \"first_name\": \"Tracey\",\n      \"last_name\": \"Ramos\",\n      \"avatar\": \"https:\/\/reqres.in\/img\/faces\/6-image.jpg\"\n    }\n  ],\n  \"support\": {\n    \"url\": \"https:\/\/reqres.in\/#support-heading\",\n    \"text\": \"To keep ReqRes free, contributions towards server costs are appreciated!\"\n  }\n}\n \n"}],"executorName":"main","line":24,"name":"get all users","description":"","durationMillis":205.1007,"startTime":1708775650177,"failed":false,"refId":"[2:24]","endTime":1708775650383,"exampleIndex":-1},{"sectionIndex":2,"stepResults":[{"result":{"nanos":293300,"millis":0.2933,"status":"passed"},"step":{"background":true,"line":3,"prefix":"*","index":0,"text":"url 'https:\/\/reqres.in\/'"}},{"result":{"nanos":131400,"millis":0.1314,"status":"passed"},"step":{"background":true,"line":4,"prefix":"*","index":1,"text":"header Accept = 'application\/json'"}},{"result":{"nanos":529100,"millis":0.5291,"status":"passed"},"step":{"line":31,"prefix":"Given","index":0,"text":"path 'api\/users\/2'"}},{"result":{"nanos":221300,"millis":0.2213,"status":"passed"},"step":{"endLine":38,"line":32,"prefix":"And","docString":"{\n    \"name\": \"morpheus\",\n    \"job\": \"zion resident\"\n}","index":1,"text":"request"}},{"result":{"nanos":453119000,"millis":453.119,"status":"passed"},"step":{"line":39,"prefix":"When","index":2,"text":"method PUT"},"stepLog":"17:24:10.399 request:\n1 > PUT https:\/\/reqres.in\/api\/users\/2\n1 > Accept: application\/json\n1 > Content-Type: application\/json; charset=UTF-8\n1 > Content-Length: 41\n1 > Host: reqres.in\n1 > Connection: Keep-Alive\n1 > User-Agent: Apache-HttpClient\/4.5.14 (Java\/17.0.9)\n1 > Accept-Encoding: gzip,deflate\n{\"name\":\"morpheus\",\"job\":\"zion resident\"}\n\n17:24:10.851 response time in milliseconds: 450\n1 < 200\n1 < Date: Sat, 24 Feb 2024 11:54:10 GMT\n1 < Content-Type: application\/json; charset=utf-8\n1 < Transfer-Encoding: chunked\n1 < Connection: keep-alive\n1 < Report-To: {\"group\":\"heroku-nel\",\"max_age\":3600,\"endpoints\":[{\"url\":\"https:\/\/nel.heroku.com\/reports?ts=1708775650&sid=c4c9725f-1ab0-44d8-820f-430df2718e11&s=yH5qCIQLFiN2LCqy440TRbqR29I0aPlTCwlzKkiAR8U%3D\"}]}\n1 < Reporting-Endpoints: heroku-nel=https:\/\/nel.heroku.com\/reports?ts=1708775650&sid=c4c9725f-1ab0-44d8-820f-430df2718e11&s=yH5qCIQLFiN2LCqy440TRbqR29I0aPlTCwlzKkiAR8U%3D\n1 < Nel: {\"report_to\":\"heroku-nel\",\"max_age\":3600,\"success_fraction\":0.005,\"failure_fraction\":0.05,\"response_headers\":[\"Via\"]}\n1 < X-Powered-By: Express\n1 < Access-Control-Allow-Origin: *\n1 < Etag: W\/\"50-W7VxROBz8B1Lruy1Ew+xPTGi5wY\"\n1 < Via: 1.1 vegur\n1 < CF-Cache-Status: DYNAMIC\n1 < Vary: Accept-Encoding\n1 < Server: cloudflare\n1 < CF-RAY: 85a78326a9baf3cd-BOM\n{\"name\":\"morpheus\",\"job\":\"zion resident\",\"updatedAt\":\"2024-02-24T11:54:10.552Z\"}\n\n"},{"result":{"nanos":10100,"millis":0.0101,"status":"passed"},"step":{"line":40,"prefix":"Then","index":3,"text":"status 200"}},{"result":{"nanos":1537800,"millis":1.5378,"status":"passed"},"step":{"line":41,"prefix":"And","index":4,"text":"print response"},"stepLog":"17:24:10.854 [print] {\n  \"name\": \"morpheus\",\n  \"job\": \"zion resident\",\n  \"updatedAt\": \"2024-02-24T11:54:10.552Z\"\n}\n \n"},{"result":{"nanos":3296100,"errorMessage":"match failed: EQUALS\n  $ | data types don't match (STRING:BOOLEAN)\n  'morpheus'\n  false\n\nclasspath:feature\/demoApi.feature:42","millis":3.2961,"status":"failed"},"step":{"line":42,"prefix":"And","index":5,"text":"match $.name == !'Komal'"},"stepLog":"17:24:10.858 classpath:feature\/demoApi.feature:42\nAnd match $.name == !'Komal'\nmatch failed: EQUALS\n  $ | data types don't match (STRING:BOOLEAN)\n  'morpheus'\n  false\n\nclasspath:feature\/demoApi.feature:42\n"},{"result":{"nanos":0,"millis":0.0,"status":"skipped"},"step":{"line":43,"prefix":"And","index":6,"text":"match $.job == 'Tester'"}}],"line":30,"description":"","durationMillis":459.1381,"failed":true,"error":"match failed: EQUALS\n  $ | data types don't match (STRING:BOOLEAN)\n  'morpheus'\n  false\n\nclasspath:feature\/demoApi.feature:42","executorName":"main","name":"put user","startTime":1708775650396,"refId":"[3:30]","endTime":1708775650859,"exampleIndex":-1},{"sectionIndex":3,"stepResults":[{"result":{"nanos":474800,"millis":0.4748,"status":"passed"},"step":{"background":true,"line":3,"prefix":"*","index":0,"text":"url 'https:\/\/reqres.in\/'"}},{"result":{"nanos":311900,"millis":0.3119,"status":"passed"},"step":{"background":true,"line":4,"prefix":"*","index":1,"text":"header Accept = 'application\/json'"}},{"result":{"nanos":186500,"millis":0.1865,"status":"passed"},"step":{"line":46,"prefix":"Given","index":0,"text":"path 'api\/users\/2'"}},{"result":{"nanos":380811300,"millis":380.8113,"status":"passed"},"step":{"line":47,"prefix":"When","index":1,"text":"method get"},"stepLog":"17:24:10.881 request:\n1 > GET https:\/\/reqres.in\/api\/users\/2\n1 > Accept: application\/json\n1 > Host: reqres.in\n1 > Connection: Keep-Alive\n1 > User-Agent: Apache-HttpClient\/4.5.14 (Java\/17.0.9)\n1 > Accept-Encoding: gzip,deflate\n\n\n17:24:11.260 response time in milliseconds: 377\n1 < 200\n1 < Date: Sat, 24 Feb 2024 11:54:11 GMT\n1 < Content-Type: application\/json; charset=utf-8\n1 < Transfer-Encoding: chunked\n1 < Connection: keep-alive\n1 < Report-To: {\"group\":\"heroku-nel\",\"max_age\":3600,\"endpoints\":[{\"url\":\"https:\/\/nel.heroku.com\/reports?ts=1708762470&sid=c4c9725f-1ab0-44d8-820f-430df2718e11&s=eut%2FJ%2B9VbklPlW2zLK4CPQhiKUQK%2B51VvoEkWl%2FklB8%3D\"}]}\n1 < Reporting-Endpoints: heroku-nel=https:\/\/nel.heroku.com\/reports?ts=1708762470&sid=c4c9725f-1ab0-44d8-820f-430df2718e11&s=eut%2FJ%2B9VbklPlW2zLK4CPQhiKUQK%2B51VvoEkWl%2FklB8%3D\n1 < Nel: {\"report_to\":\"heroku-nel\",\"max_age\":3600,\"success_fraction\":0.005,\"failure_fraction\":0.05,\"response_headers\":[\"Via\"]}\n1 < X-Powered-By: Express\n1 < Access-Control-Allow-Origin: *\n1 < Etag: W\/\"118-pbdwwFo9SKNhD3Lx5iHJyngpq00\"\n1 < Via: 1.1 vegur\n1 < Cache-Control: max-age=14400\n1 < CF-Cache-Status: HIT\n1 < Age: 5891\n1 < Vary: Accept-Encoding\n1 < Server: cloudflare\n1 < CF-RAY: 85a7832b1d76850d-BOM\n{\"data\":{\"id\":2,\"email\":\"janet.weaver@reqres.in\",\"first_name\":\"Janet\",\"last_name\":\"Weaver\",\"avatar\":\"https:\/\/reqres.in\/img\/faces\/2-image.jpg\"},\"support\":{\"url\":\"https:\/\/reqres.in\/#support-heading\",\"text\":\"To keep ReqRes free, contributions towards server costs are appreciated!\"}}\n\n"},{"result":{"nanos":8600,"millis":0.0086,"status":"passed"},"step":{"line":48,"prefix":"Then","index":2,"text":"status 200"}},{"result":{"nanos":3460600,"millis":3.4606,"status":"passed"},"step":{"line":49,"prefix":"And","index":3,"text":"print response"},"stepLog":"17:24:11.265 [print] {\n  \"data\": {\n    \"id\": 2,\n    \"email\": \"janet.weaver@reqres.in\",\n    \"first_name\": \"Janet\",\n    \"last_name\": \"Weaver\",\n    \"avatar\": \"https:\/\/reqres.in\/img\/faces\/2-image.jpg\"\n  },\n  \"support\": {\n    \"url\": \"https:\/\/reqres.in\/#support-heading\",\n    \"text\": \"To keep ReqRes free, contributions towards server costs are appreciated!\"\n  }\n}\n \n"}],"executorName":"main","line":45,"name":"get single user","description":"","durationMillis":385.2537,"startTime":1708775650879,"failed":false,"refId":"[4:45]","endTime":1708775651265,"exampleIndex":-1}],"callDepth":0,"name":"check all users","description":"","resultDate":"2024-02-24 05:24:11 pm","durationMillis":1603.9885,"passedCount":3}