{"failedCount":1,"prefixedPath":"src\/test\/java\/feature\/demoApi.feature","packageQualifiedName":"src.test.java.feature.demoApi","loopIndex":-1,"relativePath":"src\/test\/java\/feature\/demoApi.feature","scenarioResults":[{"sectionIndex":0,"stepResults":[{"result":{"nanos":47411400,"millis":47.4114,"status":"passed"},"step":{"background":true,"line":3,"prefix":"*","index":0,"text":"url 'https:\/\/reqres.in\/'"}},{"result":{"nanos":584900,"millis":0.5849,"status":"passed"},"step":{"background":true,"line":4,"prefix":"*","index":1,"text":"header Accept = 'application\/json'"}},{"result":{"nanos":311400,"millis":0.3114,"status":"passed"},"step":{"line":8,"prefix":"Given","index":0,"text":"path 'api\/users'"}},{"result":{"nanos":31459100,"millis":31.4591,"status":"passed"},"step":{"endLine":15,"line":9,"prefix":"And","docString":"{\n    \"name\": \"Komal\",\n    \"job\": \"Tester\"\n}","index":1,"text":"request"}},{"result":{"nanos":892002400,"millis":892.0024,"status":"passed"},"step":{"line":16,"prefix":"When","index":2,"text":"method POST"},"stepLog":"17:26:55.314 request:\n1 > POST https:\/\/reqres.in\/api\/users\n1 > Accept: application\/json\n1 > Content-Type: application\/json; charset=UTF-8\n1 > Content-Length: 31\n1 > Host: reqres.in\n1 > Connection: Keep-Alive\n1 > User-Agent: Apache-HttpClient\/4.5.14 (Java\/17.0.9)\n1 > Accept-Encoding: gzip,deflate\n{\"name\":\"Komal\",\"job\":\"Tester\"}\n\n17:26:55.930 response time in milliseconds: 610\n1 < 201\n1 < Date: Sat, 24 Feb 2024 11:56:55 GMT\n1 < Content-Type: application\/json; charset=utf-8\n1 < Content-Length: 81\n1 < Connection: keep-alive\n1 < Report-To: {\"group\":\"heroku-nel\",\"max_age\":3600,\"endpoints\":[{\"url\":\"https:\/\/nel.heroku.com\/reports?ts=1708775815&sid=c4c9725f-1ab0-44d8-820f-430df2718e11&s=BbFfRFb2N7Pl95ZZVfqjtJokRcymCIYPdHAKes1C%2B9U%3D\"}]}\n1 < Reporting-Endpoints: heroku-nel=https:\/\/nel.heroku.com\/reports?ts=1708775815&sid=c4c9725f-1ab0-44d8-820f-430df2718e11&s=BbFfRFb2N7Pl95ZZVfqjtJokRcymCIYPdHAKes1C%2B9U%3D\n1 < Nel: {\"report_to\":\"heroku-nel\",\"max_age\":3600,\"success_fraction\":0.005,\"failure_fraction\":0.05,\"response_headers\":[\"Via\"]}\n1 < X-Powered-By: Express\n1 < Access-Control-Allow-Origin: *\n1 < Etag: W\/\"51-yzpUdDPIWeHfH7ELpI5VGbomaMM\"\n1 < Via: 1.1 vegur\n1 < CF-Cache-Status: DYNAMIC\n1 < Server: cloudflare\n1 < CF-RAY: 85a7872e8eb02dfd-BOM\n{\"name\":\"Komal\",\"job\":\"Tester\",\"id\":\"844\",\"createdAt\":\"2024-02-24T11:56:55.648Z\"}\n\n"},{"result":{"nanos":28500,"millis":0.0285,"status":"passed"},"step":{"line":17,"prefix":"Then","index":3,"text":"status 201"}},{"result":{"nanos":62410800,"millis":62.4108,"status":"passed"},"step":{"line":18,"prefix":"And","index":4,"text":"print response"},"stepLog":"17:26:55.996 [print] {\n  \"name\": \"Komal\",\n  \"job\": \"Tester\",\n  \"id\": \"844\",\n  \"createdAt\": \"2024-02-24T11:56:55.648Z\"\n}\n \n"},{"result":{"nanos":19595200,"millis":19.5952,"status":"passed"},"step":{"line":19,"prefix":"And","index":5,"text":"match $.name == 'Komal'"}},{"result":{"nanos":1125400,"millis":1.1254,"status":"passed"},"step":{"line":20,"prefix":"And","index":6,"text":"match $.job == 'Tester'"}},{"result":{"nanos":873300,"millis":0.8733,"status":"passed"},"step":{"line":21,"prefix":"And","index":7,"text":"match $.id == '#present'"}},{"result":{"nanos":342600,"millis":0.3426,"status":"passed"},"step":{"line":22,"prefix":"*","index":8,"text":"def id =  $.id"}}],"executorName":"main","line":7,"name":"post new user","description":"","durationMillis":1056.145,"startTime":1708775814952,"failed":false,"refId":"[1:7]","endTime":1708775816019,"exampleIndex":-1},{"sectionIndex":1,"stepResults":[{"result":{"nanos":1009800,"millis":1.0098,"status":"passed"},"step":{"background":true,"line":3,"prefix":"*","index":0,"text":"url 'https:\/\/reqres.in\/'"}},{"result":{"nanos":728200,"millis":0.7282,"status":"passed"},"step":{"background":true,"line":4,"prefix":"*","index":1,"text":"header Accept = 'application\/json'"}},{"result":{"nanos":244600,"millis":0.2446,"status":"passed"},"step":{"line":25,"prefix":"Given","index":0,"text":"path 'api\/users'"}},{"result":{"nanos":309827500,"millis":309.8275,"status":"passed"},"step":{"line":26,"prefix":"When","index":1,"text":"method GET"},"stepLog":"17:26:56.028 request:\n1 > GET https:\/\/reqres.in\/api\/users\n1 > Accept: application\/json\n1 > Host: reqres.in\n1 > Connection: Keep-Alive\n1 > User-Agent: Apache-HttpClient\/4.5.14 (Java\/17.0.9)\n1 > Accept-Encoding: gzip,deflate\n\n\n17:26:56.336 response time in milliseconds: 306\n1 < 200\n1 < Date: Sat, 24 Feb 2024 11:56:56 GMT\n1 < Content-Type: application\/json; charset=utf-8\n1 < Transfer-Encoding: chunked\n1 < Connection: keep-alive\n1 < Report-To: {\"group\":\"heroku-nel\",\"max_age\":3600,\"endpoints\":[{\"url\":\"https:\/\/nel.heroku.com\/reports?ts=1708323277&sid=c4c9725f-1ab0-44d8-820f-430df2718e11&s=gU6axS4Mp67aeP%2BhoY9XjTxrqAZl6e6iAyAcCBWhkos%3D\"}]}\n1 < Reporting-Endpoints: heroku-nel=https:\/\/nel.heroku.com\/reports?ts=1708323277&sid=c4c9725f-1ab0-44d8-820f-430df2718e11&s=gU6axS4Mp67aeP%2BhoY9XjTxrqAZl6e6iAyAcCBWhkos%3D\n1 < Nel: {\"report_to\":\"heroku-nel\",\"max_age\":3600,\"success_fraction\":0.005,\"failure_fraction\":0.05,\"response_headers\":[\"Via\"]}\n1 < X-Powered-By: Express\n1 < Access-Control-Allow-Origin: *\n1 < Etag: W\/\"3e4-2RLXvr5wTg9YQ6aH95CkYoFNuO8\"\n1 < Via: 1.1 vegur\n1 < Cache-Control: max-age=14400\n1 < CF-Cache-Status: HIT\n1 < Age: 5311\n1 < Vary: Accept-Encoding\n1 < Server: cloudflare\n1 < CF-RAY: 85a78732cdc8f573-BOM\n{\"page\":1,\"per_page\":6,\"total\":12,\"total_pages\":2,\"data\":[{\"id\":1,\"email\":\"george.bluth@reqres.in\",\"first_name\":\"George\",\"last_name\":\"Bluth\",\"avatar\":\"https:\/\/reqres.in\/img\/faces\/1-image.jpg\"},{\"id\":2,\"email\":\"janet.weaver@reqres.in\",\"first_name\":\"Janet\",\"last_name\":\"Weaver\",\"avatar\":\"https:\/\/reqres.in\/img\/faces\/2-image.jpg\"},{\"id\":3,\"email\":\"emma.wong@reqres.in\",\"first_name\":\"Emma\",\"last_name\":\"Wong\",\"avatar\":\"https:\/\/reqres.in\/img\/faces\/3-image.jpg\"},{\"id\":4,\"email\":\"eve.holt@reqres.in\",\"first_name\":\"Eve\",\"last_name\":\"Holt\",\"avatar\":\"https:\/\/reqres.in\/img\/faces\/4-image.jpg\"},{\"id\":5,\"email\":\"charles.morris@reqres.in\",\"first_name\":\"Charles\",\"last_name\":\"Morris\",\"avatar\":\"https:\/\/reqres.in\/img\/faces\/5-image.jpg\"},{\"id\":6,\"email\":\"tracey.ramos@reqres.in\",\"first_name\":\"Tracey\",\"last_name\":\"Ramos\",\"avatar\":\"https:\/\/reqres.in\/img\/faces\/6-image.jpg\"}],\"support\":{\"url\":\"https:\/\/reqres.in\/#support-heading\",\"text\":\"To keep ReqRes free, contributions towards server costs are appreciated!\"}}\n\n"},{"result":{"nanos":9400,"millis":0.0094,"status":"passed"},"step":{"line":27,"prefix":"Then","index":2,"text":"status 200"}},{"result":{"nanos":862800,"millis":0.8628,"status":"passed"},"step":{"line":28,"prefix":"And","index":3,"text":"print response"},"stepLog":"17:26:56.338 [print] {\n  \"page\": 1,\n  \"per_page\": 6,\n  \"total\": 12,\n  \"total_pages\": 2,\n  \"data\": [\n    {\n      \"id\": 1,\n      \"email\": \"george.bluth@reqres.in\",\n      \"first_name\": \"George\",\n      \"last_name\": \"Bluth\",\n      \"avatar\": \"https:\/\/reqres.in\/img\/faces\/1-image.jpg\"\n    },\n    {\n      \"id\": 2,\n      \"email\": \"janet.weaver@reqres.in\",\n      \"first_name\": \"Janet\",\n      \"last_name\": \"Weaver\",\n      \"avatar\": \"https:\/\/reqres.in\/img\/faces\/2-image.jpg\"\n    },\n    {\n      \"id\": 3,\n      \"email\": \"emma.wong@reqres.in\",\n      \"first_name\": \"Emma\",\n      \"last_name\": \"Wong\",\n      \"avatar\": \"https:\/\/reqres.in\/img\/faces\/3-image.jpg\"\n    },\n    {\n      \"id\": 4,\n      \"email\": \"eve.holt@reqres.in\",\n      \"first_name\": \"Eve\",\n      \"last_name\": \"Holt\",\n      \"avatar\": \"https:\/\/reqres.in\/img\/faces\/4-image.jpg\"\n    },\n    {\n      \"id\": 5,\n      \"email\": \"charles.morris@reqres.in\",\n      \"first_name\": \"Charles\",\n      \"last_name\": \"Morris\",\n      \"avatar\": \"https:\/\/reqres.in\/img\/faces\/5-image.jpg\"\n    },\n    {\n      \"id\": 6,\n      \"email\": \"tracey.ramos@reqres.in\",\n      \"first_name\": \"Tracey\",\n      \"last_name\": \"Ramos\",\n      \"avatar\": \"https:\/\/reqres.in\/img\/faces\/6-image.jpg\"\n    }\n  ],\n  \"support\": {\n    \"url\": \"https:\/\/reqres.in\/#support-heading\",\n    \"text\": \"To keep ReqRes free, contributions towards server costs are appreciated!\"\n  }\n}\n \n"}],"executorName":"main","line":24,"name":"get all users","description":"","durationMillis":312.6823,"startTime":1708775816024,"failed":false,"refId":"[2:24]","endTime":1708775816338,"exampleIndex":-1},{"sectionIndex":2,"stepResults":[{"result":{"nanos":147400,"millis":0.1474,"status":"passed"},"step":{"background":true,"line":3,"prefix":"*","index":0,"text":"url 'https:\/\/reqres.in\/'"}},{"result":{"nanos":114500,"millis":0.1145,"status":"passed"},"step":{"background":true,"line":4,"prefix":"*","index":1,"text":"header Accept = 'application\/json'"}},{"result":{"nanos":329400,"millis":0.3294,"status":"passed"},"step":{"line":31,"prefix":"Given","index":0,"text":"path 'api\/users\/2'"}},{"result":{"nanos":214800,"millis":0.2148,"status":"passed"},"step":{"endLine":38,"line":32,"prefix":"And","docString":"{\n    \"name\": \"morpheus\",\n    \"job\": \"zion resident\"\n}","index":1,"text":"request"}},{"result":{"nanos":502497500,"millis":502.4975,"status":"passed"},"step":{"line":39,"prefix":"When","index":2,"text":"method PUT"},"stepLog":"17:26:56.343 request:\n1 > PUT https:\/\/reqres.in\/api\/users\/2\n1 > Accept: application\/json\n1 > Content-Type: application\/json; charset=UTF-8\n1 > Content-Length: 41\n1 > Host: reqres.in\n1 > Connection: Keep-Alive\n1 > User-Agent: Apache-HttpClient\/4.5.14 (Java\/17.0.9)\n1 > Accept-Encoding: gzip,deflate\n{\"name\":\"morpheus\",\"job\":\"zion resident\"}\n\n17:26:56.843 response time in milliseconds: 499\n1 < 200\n1 < Date: Sat, 24 Feb 2024 11:56:56 GMT\n1 < Content-Type: application\/json; charset=utf-8\n1 < Transfer-Encoding: chunked\n1 < Connection: keep-alive\n1 < Report-To: {\"group\":\"heroku-nel\",\"max_age\":3600,\"endpoints\":[{\"url\":\"https:\/\/nel.heroku.com\/reports?ts=1708775816&sid=c4c9725f-1ab0-44d8-820f-430df2718e11&s=BdaZKqo4rQaQOpY5x3r%2BgzGEAtT8S98QTHugljlUaxQ%3D\"}]}\n1 < Reporting-Endpoints: heroku-nel=https:\/\/nel.heroku.com\/reports?ts=1708775816&sid=c4c9725f-1ab0-44d8-820f-430df2718e11&s=BdaZKqo4rQaQOpY5x3r%2BgzGEAtT8S98QTHugljlUaxQ%3D\n1 < Nel: {\"report_to\":\"heroku-nel\",\"max_age\":3600,\"success_fraction\":0.005,\"failure_fraction\":0.05,\"response_headers\":[\"Via\"]}\n1 < X-Powered-By: Express\n1 < Access-Control-Allow-Origin: *\n1 < Etag: W\/\"50-Txj75Bg8O9p0tw27LsJoijPk0Rw\"\n1 < Via: 1.1 vegur\n1 < CF-Cache-Status: DYNAMIC\n1 < Vary: Accept-Encoding\n1 < Server: cloudflare\n1 < CF-RAY: 85a7873428bd31e7-BOM\n{\"name\":\"morpheus\",\"job\":\"zion resident\",\"updatedAt\":\"2024-02-24T11:56:56.554Z\"}\n\n"},{"result":{"nanos":9100,"millis":0.0091,"status":"passed"},"step":{"line":40,"prefix":"Then","index":3,"text":"status 200"}},{"result":{"nanos":387300,"millis":0.3873,"status":"passed"},"step":{"line":41,"prefix":"And","index":4,"text":"print response"},"stepLog":"17:26:56.844 [print] {\n  \"name\": \"morpheus\",\n  \"job\": \"zion resident\",\n  \"updatedAt\": \"2024-02-24T11:56:56.554Z\"\n}\n \n"},{"result":{"nanos":660300,"millis":0.6603,"status":"passed"},"step":{"line":42,"prefix":"And","index":5,"text":"match $.name == 'morpheus'"}},{"result":{"nanos":586300,"millis":0.5863,"status":"passed"},"step":{"line":43,"prefix":"And","index":6,"text":"match $.job == 'zion resident'"}}],"executorName":"main","line":30,"name":"put user","description":"","durationMillis":504.9466,"startTime":1708775816341,"failed":false,"refId":"[3:30]","endTime":1708775816845,"exampleIndex":-1},{"sectionIndex":3,"stepResults":[{"result":{"nanos":103200,"millis":0.1032,"status":"passed"},"step":{"background":true,"line":3,"prefix":"*","index":0,"text":"url 'https:\/\/reqres.in\/'"}},{"result":{"nanos":91900,"millis":0.0919,"status":"passed"},"step":{"background":true,"line":4,"prefix":"*","index":1,"text":"header Accept = 'application\/json'"}},{"result":{"nanos":62700,"millis":0.0627,"status":"passed"},"step":{"line":46,"prefix":"Given","index":0,"text":"path 'api\/users\/2'"}},{"result":{"nanos":153521600,"millis":153.5216,"status":"passed"},"step":{"line":47,"prefix":"When","index":1,"text":"method get"},"stepLog":"17:26:56.849 request:\n1 > GET https:\/\/reqres.in\/api\/users\/2\n1 > Accept: application\/json\n1 > Host: reqres.in\n1 > Connection: Keep-Alive\n1 > User-Agent: Apache-HttpClient\/4.5.14 (Java\/17.0.9)\n1 > Accept-Encoding: gzip,deflate\n\n\n17:26:57.001 response time in milliseconds: 152\n1 < 200\n1 < Date: Sat, 24 Feb 2024 11:56:56 GMT\n1 < Content-Type: application\/json; charset=utf-8\n1 < Transfer-Encoding: chunked\n1 < Connection: keep-alive\n1 < Report-To: {\"group\":\"heroku-nel\",\"max_age\":3600,\"endpoints\":[{\"url\":\"https:\/\/nel.heroku.com\/reports?ts=1708762470&sid=c4c9725f-1ab0-44d8-820f-430df2718e11&s=eut%2FJ%2B9VbklPlW2zLK4CPQhiKUQK%2B51VvoEkWl%2FklB8%3D\"}]}\n1 < Reporting-Endpoints: heroku-nel=https:\/\/nel.heroku.com\/reports?ts=1708762470&sid=c4c9725f-1ab0-44d8-820f-430df2718e11&s=eut%2FJ%2B9VbklPlW2zLK4CPQhiKUQK%2B51VvoEkWl%2FklB8%3D\n1 < Nel: {\"report_to\":\"heroku-nel\",\"max_age\":3600,\"success_fraction\":0.005,\"failure_fraction\":0.05,\"response_headers\":[\"Via\"]}\n1 < X-Powered-By: Express\n1 < Access-Control-Allow-Origin: *\n1 < Etag: W\/\"118-pbdwwFo9SKNhD3Lx5iHJyngpq00\"\n1 < Via: 1.1 vegur\n1 < Cache-Control: max-age=14400\n1 < CF-Cache-Status: HIT\n1 < Age: 6056\n1 < Vary: Accept-Encoding\n1 < Server: cloudflare\n1 < CF-RAY: 85a787376ee385df-BOM\n{\"data\":{\"id\":2,\"email\":\"janet.weaver@reqres.in\",\"first_name\":\"Janet\",\"last_name\":\"Weaver\",\"avatar\":\"https:\/\/reqres.in\/img\/faces\/2-image.jpg\"},\"support\":{\"url\":\"https:\/\/reqres.in\/#support-heading\",\"text\":\"To keep ReqRes free, contributions towards server costs are appreciated!\"}}\n\n"},{"result":{"nanos":8100,"millis":0.0081,"status":"passed"},"step":{"line":48,"prefix":"Then","index":2,"text":"status 200"}},{"result":{"nanos":445800,"millis":0.4458,"status":"passed"},"step":{"line":49,"prefix":"And","index":3,"text":"print response"},"stepLog":"17:26:57.002 [print] {\n  \"data\": {\n    \"id\": 2,\n    \"email\": \"janet.weaver@reqres.in\",\n    \"first_name\": \"Janet\",\n    \"last_name\": \"Weaver\",\n    \"avatar\": \"https:\/\/reqres.in\/img\/faces\/2-image.jpg\"\n  },\n  \"support\": {\n    \"url\": \"https:\/\/reqres.in\/#support-heading\",\n    \"text\": \"To keep ReqRes free, contributions towards server costs are appreciated!\"\n  }\n}\n \n"},{"result":{"nanos":495100,"millis":0.4951,"status":"passed"},"step":{"line":50,"prefix":"And","index":4,"text":"match $.data.id == '#present'"}}],"executorName":"main","line":45,"name":"get single user","description":"","durationMillis":154.7284,"startTime":1708775816848,"failed":false,"refId":"[4:45]","endTime":1708775817003,"exampleIndex":-1},{"sectionIndex":4,"stepResults":[{"result":{"nanos":132800,"millis":0.1328,"status":"passed"},"step":{"background":true,"line":3,"prefix":"*","index":0,"text":"url 'https:\/\/reqres.in\/'"}},{"result":{"nanos":106700,"millis":0.1067,"status":"passed"},"step":{"background":true,"line":4,"prefix":"*","index":1,"text":"header Accept = 'application\/json'"}},{"result":{"nanos":17648500,"errorMessage":"js failed:\n>>>>\n01: 'api\/users\/' +$.data.id\n<<<<\norg.graalvm.polyglot.PolyglotException: ReferenceError: \"$\" is not defined\n- <js>.:program(Unnamed:1)\n\nsrc\/test\/java\/feature\/demoApi.feature:53","millis":17.6485,"status":"failed"},"step":{"line":53,"prefix":"Given","index":0,"text":"path 'api\/users\/' +$.data.id"},"stepLog":"17:26:57.026 src\/test\/java\/feature\/demoApi.feature:53\nGiven path 'api\/users\/' +$.data.id\njs failed:\n>>>>\n01: 'api\/users\/' +$.data.id\n<<<<\norg.graalvm.polyglot.PolyglotException: ReferenceError: \"$\" is not defined\n- <js>.:program(Unnamed:1)\n\nsrc\/test\/java\/feature\/demoApi.feature:53\n"},{"result":{"nanos":0,"millis":0.0,"status":"skipped"},"step":{"line":54,"prefix":"When","index":1,"text":"method DELETE"}},{"result":{"nanos":0,"millis":0.0,"status":"skipped"},"step":{"line":55,"prefix":"Then","index":2,"text":"status 204"}},{"result":{"nanos":0,"millis":0.0,"status":"skipped"},"step":{"line":56,"prefix":"And","index":3,"text":"print response"}}],"line":52,"description":"","durationMillis":17.888,"failed":true,"error":"js failed:\n>>>>\n01: 'api\/users\/' +$.data.id\n<<<<\norg.graalvm.polyglot.PolyglotException: ReferenceError: \"$\" is not defined\n- <js>.:program(Unnamed:1)\n\nsrc\/test\/java\/feature\/demoApi.feature:53","executorName":"main","name":"delete bookings ID 1","startTime":1708775817006,"refId":"[5:52]","endTime":1708775817026,"exampleIndex":-1}],"callDepth":0,"name":"check all users","description":"","resultDate":"2024-02-24 05:26:57 pm","durationMillis":2046.3903,"passedCount":4}