{"failedCount":0,"prefixedPath":"classpath:feature\/demoApi.feature","packageQualifiedName":"feature.demoApi","loopIndex":-1,"relativePath":"feature\/demoApi.feature","scenarioResults":[{"sectionIndex":0,"stepResults":[{"result":{"nanos":1325200,"millis":1.3252,"status":"passed"},"step":{"background":true,"line":3,"prefix":"*","index":0,"text":"url 'https:\/\/reqres.in\/'"}},{"result":{"nanos":415900,"millis":0.4159,"status":"passed"},"step":{"background":true,"line":4,"prefix":"*","index":1,"text":"header Accept = 'application\/json'"}},{"result":{"nanos":244000,"millis":0.244,"status":"passed"},"step":{"line":8,"prefix":"Given","index":0,"text":"path 'api\/users'"}},{"result":{"nanos":23167200,"millis":23.1672,"status":"passed"},"step":{"endLine":15,"line":9,"prefix":"And","docString":"{\n    \"name\": \"Komal\",\n    \"job\": \"Tester\"\n}","index":1,"text":"request"}},{"result":{"nanos":826038900,"millis":826.0389,"status":"passed"},"step":{"line":16,"prefix":"When","index":2,"text":"method POST"},"stepLog":"18:06:07.923 request:\n1 > POST https:\/\/reqres.in\/api\/users\n1 > Accept: application\/json\n1 > Content-Type: application\/json; charset=UTF-8\n1 > Content-Length: 31\n1 > Host: reqres.in\n1 > Connection: Keep-Alive\n1 > User-Agent: Apache-HttpClient\/4.5.14 (Java\/17.0.9)\n1 > Accept-Encoding: gzip,deflate\n{\"name\":\"Komal\",\"job\":\"Tester\"}\n\n18:06:08.705 response time in milliseconds: 781\n1 < 201\n1 < Date: Sat, 24 Feb 2024 12:36:08 GMT\n1 < Content-Type: application\/json; charset=utf-8\n1 < Content-Length: 81\n1 < Connection: keep-alive\n1 < Report-To: {\"group\":\"heroku-nel\",\"max_age\":3600,\"endpoints\":[{\"url\":\"https:\/\/nel.heroku.com\/reports?ts=1708778168&sid=c4c9725f-1ab0-44d8-820f-430df2718e11&s=vKVUwqhI4ePP51aIWSrqnRuhHI8rOLChL4b4P%2F%2BW0MY%3D\"}]}\n1 < Reporting-Endpoints: heroku-nel=https:\/\/nel.heroku.com\/reports?ts=1708778168&sid=c4c9725f-1ab0-44d8-820f-430df2718e11&s=vKVUwqhI4ePP51aIWSrqnRuhHI8rOLChL4b4P%2F%2BW0MY%3D\n1 < Nel: {\"report_to\":\"heroku-nel\",\"max_age\":3600,\"success_fraction\":0.005,\"failure_fraction\":0.05,\"response_headers\":[\"Via\"]}\n1 < X-Powered-By: Express\n1 < Access-Control-Allow-Origin: *\n1 < Etag: W\/\"51-6yx9bg3LrbxoHhR0g3v90yTCJDw\"\n1 < Via: 1.1 vegur\n1 < CF-Cache-Status: DYNAMIC\n1 < Server: cloudflare\n1 < CF-RAY: 85a7c09eaed559d2-DEL\n{\"name\":\"Komal\",\"job\":\"Tester\",\"id\":\"242\",\"createdAt\":\"2024-02-24T12:36:08.362Z\"}\n\n"},{"result":{"nanos":14000,"millis":0.014,"status":"passed"},"step":{"line":17,"prefix":"Then","index":3,"text":"status 201"}},{"result":{"nanos":33537000,"millis":33.537,"status":"passed"},"step":{"line":18,"prefix":"And","index":4,"text":"print response"},"stepLog":"18:06:08.741 [print] {\n  \"name\": \"Komal\",\n  \"job\": \"Tester\",\n  \"id\": \"242\",\n  \"createdAt\": \"2024-02-24T12:36:08.362Z\"\n}\n \n"},{"result":{"nanos":10865400,"millis":10.8654,"status":"passed"},"step":{"line":19,"prefix":"And","index":5,"text":"match $.name == 'Komal'"}},{"result":{"nanos":741100,"millis":0.7411,"status":"passed"},"step":{"line":20,"prefix":"And","index":6,"text":"match $.job == 'Tester'"}},{"result":{"nanos":730600,"millis":0.7306,"status":"passed"},"step":{"line":21,"prefix":"And","index":7,"text":"match $.id == '#present'"}},{"result":{"nanos":424900,"millis":0.4249,"status":"passed"},"step":{"line":22,"prefix":"*","index":8,"text":"def id =  $.id"}}],"executorName":"main","line":7,"name":"post new user","description":"","durationMillis":897.5042,"startTime":1708778167853,"failed":false,"refId":"[1:7]","endTime":1708778168754,"exampleIndex":-1},{"sectionIndex":1,"stepResults":[{"result":{"nanos":467900,"millis":0.4679,"status":"passed"},"step":{"background":true,"line":3,"prefix":"*","index":0,"text":"url 'https:\/\/reqres.in\/'"}},{"result":{"nanos":245300,"millis":0.2453,"status":"passed"},"step":{"background":true,"line":4,"prefix":"*","index":1,"text":"header Accept = 'application\/json'"}},{"result":{"nanos":149700,"millis":0.1497,"status":"passed"},"step":{"line":25,"prefix":"Given","index":0,"text":"path 'api\/users'"}},{"result":{"nanos":380578500,"millis":380.5785,"status":"passed"},"step":{"line":26,"prefix":"When","index":1,"text":"method GET"},"stepLog":"18:06:08.761 request:\n1 > GET https:\/\/reqres.in\/api\/users\n1 > Accept: application\/json\n1 > Host: reqres.in\n1 > Connection: Keep-Alive\n1 > User-Agent: Apache-HttpClient\/4.5.14 (Java\/17.0.9)\n1 > Accept-Encoding: gzip,deflate\n\n\n18:06:09.138 response time in milliseconds: 372\n1 < 200\n1 < Date: Sat, 24 Feb 2024 12:36:08 GMT\n1 < Content-Type: application\/json; charset=utf-8\n1 < Transfer-Encoding: chunked\n1 < Connection: keep-alive\n1 < Report-To: {\"group\":\"heroku-nel\",\"max_age\":3600,\"endpoints\":[{\"url\":\"https:\/\/nel.heroku.com\/reports?ts=1707279068&sid=c4c9725f-1ab0-44d8-820f-430df2718e11&s=3kMiQjbGyLjlyEpvW%2FBdHtQWEn6Me5oE0JCqLowkN70%3D\"}]}\n1 < Reporting-Endpoints: heroku-nel=https:\/\/nel.heroku.com\/reports?ts=1707279068&sid=c4c9725f-1ab0-44d8-820f-430df2718e11&s=3kMiQjbGyLjlyEpvW%2FBdHtQWEn6Me5oE0JCqLowkN70%3D\n1 < Nel: {\"report_to\":\"heroku-nel\",\"max_age\":3600,\"success_fraction\":0.005,\"failure_fraction\":0.05,\"response_headers\":[\"Via\"]}\n1 < X-Powered-By: Express\n1 < Access-Control-Allow-Origin: *\n1 < Etag: W\/\"3e4-2RLXvr5wTg9YQ6aH95CkYoFNuO8\"\n1 < Via: 1.1 vegur\n1 < Cache-Control: max-age=14400\n1 < CF-Cache-Status: HIT\n1 < Age: 217\n1 < Vary: Accept-Encoding\n1 < Server: cloudflare\n1 < CF-RAY: 85a7c0a398d58581-BOM\n{\"page\":1,\"per_page\":6,\"total\":12,\"total_pages\":2,\"data\":[{\"id\":1,\"email\":\"george.bluth@reqres.in\",\"first_name\":\"George\",\"last_name\":\"Bluth\",\"avatar\":\"https:\/\/reqres.in\/img\/faces\/1-image.jpg\"},{\"id\":2,\"email\":\"janet.weaver@reqres.in\",\"first_name\":\"Janet\",\"last_name\":\"Weaver\",\"avatar\":\"https:\/\/reqres.in\/img\/faces\/2-image.jpg\"},{\"id\":3,\"email\":\"emma.wong@reqres.in\",\"first_name\":\"Emma\",\"last_name\":\"Wong\",\"avatar\":\"https:\/\/reqres.in\/img\/faces\/3-image.jpg\"},{\"id\":4,\"email\":\"eve.holt@reqres.in\",\"first_name\":\"Eve\",\"last_name\":\"Holt\",\"avatar\":\"https:\/\/reqres.in\/img\/faces\/4-image.jpg\"},{\"id\":5,\"email\":\"charles.morris@reqres.in\",\"first_name\":\"Charles\",\"last_name\":\"Morris\",\"avatar\":\"https:\/\/reqres.in\/img\/faces\/5-image.jpg\"},{\"id\":6,\"email\":\"tracey.ramos@reqres.in\",\"first_name\":\"Tracey\",\"last_name\":\"Ramos\",\"avatar\":\"https:\/\/reqres.in\/img\/faces\/6-image.jpg\"}],\"support\":{\"url\":\"https:\/\/reqres.in\/#support-heading\",\"text\":\"To keep ReqRes free, contributions towards server costs are appreciated!\"}}\n\n"},{"result":{"nanos":10600,"millis":0.0106,"status":"passed"},"step":{"line":27,"prefix":"Then","index":2,"text":"status 200"}},{"result":{"nanos":676100,"millis":0.6761,"status":"passed"},"step":{"line":28,"prefix":"And","index":3,"text":"print response"},"stepLog":"18:06:09.141 [print] {\n  \"page\": 1,\n  \"per_page\": 6,\n  \"total\": 12,\n  \"total_pages\": 2,\n  \"data\": [\n    {\n      \"id\": 1,\n      \"email\": \"george.bluth@reqres.in\",\n      \"first_name\": \"George\",\n      \"last_name\": \"Bluth\",\n      \"avatar\": \"https:\/\/reqres.in\/img\/faces\/1-image.jpg\"\n    },\n    {\n      \"id\": 2,\n      \"email\": \"janet.weaver@reqres.in\",\n      \"first_name\": \"Janet\",\n      \"last_name\": \"Weaver\",\n      \"avatar\": \"https:\/\/reqres.in\/img\/faces\/2-image.jpg\"\n    },\n    {\n      \"id\": 3,\n      \"email\": \"emma.wong@reqres.in\",\n      \"first_name\": \"Emma\",\n      \"last_name\": \"Wong\",\n      \"avatar\": \"https:\/\/reqres.in\/img\/faces\/3-image.jpg\"\n    },\n    {\n      \"id\": 4,\n      \"email\": \"eve.holt@reqres.in\",\n      \"first_name\": \"Eve\",\n      \"last_name\": \"Holt\",\n      \"avatar\": \"https:\/\/reqres.in\/img\/faces\/4-image.jpg\"\n    },\n    {\n      \"id\": 5,\n      \"email\": \"charles.morris@reqres.in\",\n      \"first_name\": \"Charles\",\n      \"last_name\": \"Morris\",\n      \"avatar\": \"https:\/\/reqres.in\/img\/faces\/5-image.jpg\"\n    },\n    {\n      \"id\": 6,\n      \"email\": \"tracey.ramos@reqres.in\",\n      \"first_name\": \"Tracey\",\n      \"last_name\": \"Ramos\",\n      \"avatar\": \"https:\/\/reqres.in\/img\/faces\/6-image.jpg\"\n    }\n  ],\n  \"support\": {\n    \"url\": \"https:\/\/reqres.in\/#support-heading\",\n    \"text\": \"To keep ReqRes free, contributions towards server costs are appreciated!\"\n  }\n}\n \n"}],"executorName":"main","line":24,"name":"get all users","description":"","durationMillis":382.1281,"startTime":1708778168758,"failed":false,"refId":"[2:24]","endTime":1708778169141,"exampleIndex":-1},{"sectionIndex":2,"stepResults":[{"result":{"nanos":148200,"millis":0.1482,"status":"passed"},"step":{"background":true,"line":3,"prefix":"*","index":0,"text":"url 'https:\/\/reqres.in\/'"}},{"result":{"nanos":102000,"millis":0.102,"status":"passed"},"step":{"background":true,"line":4,"prefix":"*","index":1,"text":"header Accept = 'application\/json'"}},{"result":{"nanos":582800,"millis":0.5828,"status":"passed"},"step":{"line":31,"prefix":"Given","index":0,"text":"path 'api\/users\/3'"}},{"result":{"nanos":177400,"millis":0.1774,"status":"passed"},"step":{"endLine":38,"line":32,"prefix":"And","docString":"{\n    \"name\": \"morpheus\",\n    \"job\": \"zion resident\"\n}","index":1,"text":"request"}},{"result":{"nanos":797865600,"millis":797.8656,"status":"passed"},"step":{"line":39,"prefix":"When","index":2,"text":"method PUT"},"stepLog":"18:06:09.147 request:\n1 > PUT https:\/\/reqres.in\/api\/users\/3\n1 > Accept: application\/json\n1 > Content-Type: application\/json; charset=UTF-8\n1 > Content-Length: 41\n1 > Host: reqres.in\n1 > Connection: Keep-Alive\n1 > User-Agent: Apache-HttpClient\/4.5.14 (Java\/17.0.9)\n1 > Accept-Encoding: gzip,deflate\n{\"name\":\"morpheus\",\"job\":\"zion resident\"}\n\n18:06:09.943 response time in milliseconds: 794\n1 < 200\n1 < Date: Sat, 24 Feb 2024 12:36:09 GMT\n1 < Content-Type: application\/json; charset=utf-8\n1 < Transfer-Encoding: chunked\n1 < Connection: keep-alive\n1 < Report-To: {\"group\":\"heroku-nel\",\"max_age\":3600,\"endpoints\":[{\"url\":\"https:\/\/nel.heroku.com\/reports?ts=1708778169&sid=c4c9725f-1ab0-44d8-820f-430df2718e11&s=59p4CT%2Bw2HUKo%2B%2Bn9ox1K1R8mjCIXtiOZ1AEMRG1mzE%3D\"}]}\n1 < Reporting-Endpoints: heroku-nel=https:\/\/nel.heroku.com\/reports?ts=1708778169&sid=c4c9725f-1ab0-44d8-820f-430df2718e11&s=59p4CT%2Bw2HUKo%2B%2Bn9ox1K1R8mjCIXtiOZ1AEMRG1mzE%3D\n1 < Nel: {\"report_to\":\"heroku-nel\",\"max_age\":3600,\"success_fraction\":0.005,\"failure_fraction\":0.05,\"response_headers\":[\"Via\"]}\n1 < X-Powered-By: Express\n1 < Access-Control-Allow-Origin: *\n1 < Etag: W\/\"50-Pdu9+bXQpAPmdeBMk22YAU6LZT4\"\n1 < Via: 1.1 vegur\n1 < CF-Cache-Status: DYNAMIC\n1 < Vary: Accept-Encoding\n1 < Server: cloudflare\n1 < CF-RAY: 85a7c0a6b81b29ea-BOM\n{\"name\":\"morpheus\",\"job\":\"zion resident\",\"updatedAt\":\"2024-02-24T12:36:09.607Z\"}\n\n"},{"result":{"nanos":15100,"millis":0.0151,"status":"passed"},"step":{"line":40,"prefix":"Then","index":3,"text":"status 200"}},{"result":{"nanos":701400,"millis":0.7014,"status":"passed"},"step":{"line":41,"prefix":"And","index":4,"text":"print response"},"stepLog":"18:06:09.945 [print] {\n  \"name\": \"morpheus\",\n  \"job\": \"zion resident\",\n  \"updatedAt\": \"2024-02-24T12:36:09.607Z\"\n}\n \n"},{"result":{"nanos":1040700,"millis":1.0407,"status":"passed"},"step":{"line":42,"prefix":"And","index":5,"text":"match $.name == 'morpheus'"}},{"result":{"nanos":859100,"millis":0.8591,"status":"passed"},"step":{"line":43,"prefix":"And","index":6,"text":"match $.job == 'zion resident'"}}],"executorName":"main","line":30,"name":"put user","description":"","durationMillis":801.4923,"startTime":1708778169145,"failed":false,"refId":"[3:30]","endTime":1708778169947,"exampleIndex":-1},{"sectionIndex":3,"stepResults":[{"result":{"nanos":184000,"millis":0.184,"status":"passed"},"step":{"background":true,"line":3,"prefix":"*","index":0,"text":"url 'https:\/\/reqres.in\/'"}},{"result":{"nanos":118800,"millis":0.1188,"status":"passed"},"step":{"background":true,"line":4,"prefix":"*","index":1,"text":"header Accept = 'application\/json'"}},{"result":{"nanos":292000,"millis":0.292,"status":"passed"},"step":{"line":46,"prefix":"Given","index":0,"text":"path 'api\/users\/2'"}},{"result":{"nanos":203700,"millis":0.2037,"status":"passed"},"step":{"endLine":53,"line":47,"prefix":"And","docString":"{\n    \"name\": \"morpheus\",\n    \"job\": \"zion resident\"\n}","index":1,"text":"request"}},{"result":{"nanos":594830600,"millis":594.8306,"status":"passed"},"step":{"line":54,"prefix":"When","index":2,"text":"method PATCH"},"stepLog":"18:06:09.957 request:\n1 > PATCH https:\/\/reqres.in\/api\/users\/2\n1 > Accept: application\/json\n1 > Content-Type: application\/json; charset=UTF-8\n1 > Content-Length: 41\n1 > Host: reqres.in\n1 > Connection: Keep-Alive\n1 > User-Agent: Apache-HttpClient\/4.5.14 (Java\/17.0.9)\n1 > Accept-Encoding: gzip,deflate\n{\"name\":\"morpheus\",\"job\":\"zion resident\"}\n\n18:06:10.547 response time in milliseconds: 588\n1 < 200\n1 < Date: Sat, 24 Feb 2024 12:36:10 GMT\n1 < Content-Type: application\/json; charset=utf-8\n1 < Transfer-Encoding: chunked\n1 < Connection: keep-alive\n1 < Report-To: {\"group\":\"heroku-nel\",\"max_age\":3600,\"endpoints\":[{\"url\":\"https:\/\/nel.heroku.com\/reports?ts=1708778170&sid=c4c9725f-1ab0-44d8-820f-430df2718e11&s=kYLXCPLV0hBLdMhJsWVSUnxAzIWqpBu%2FS9P9fY5UzYo%3D\"}]}\n1 < Reporting-Endpoints: heroku-nel=https:\/\/nel.heroku.com\/reports?ts=1708778170&sid=c4c9725f-1ab0-44d8-820f-430df2718e11&s=kYLXCPLV0hBLdMhJsWVSUnxAzIWqpBu%2FS9P9fY5UzYo%3D\n1 < Nel: {\"report_to\":\"heroku-nel\",\"max_age\":3600,\"success_fraction\":0.005,\"failure_fraction\":0.05,\"response_headers\":[\"Via\"]}\n1 < X-Powered-By: Express\n1 < Access-Control-Allow-Origin: *\n1 < Etag: W\/\"50-iCEJbsnNORqG5Z3tWObW1QvkfCs\"\n1 < Via: 1.1 vegur\n1 < CF-Cache-Status: DYNAMIC\n1 < Server: cloudflare\n1 < CF-RAY: 85a7c0aaa9a531a5-BOM\n{\"name\":\"morpheus\",\"job\":\"zion resident\",\"updatedAt\":\"2024-02-24T12:36:10.245Z\"}\n\n"},{"result":{"nanos":18200,"millis":0.0182,"status":"passed"},"step":{"line":55,"prefix":"Then","index":3,"text":"status 200"}},{"result":{"nanos":819500,"millis":0.8195,"status":"passed"},"step":{"line":56,"prefix":"And","index":4,"text":"print response"},"stepLog":"18:06:10.552 [print] {\n  \"name\": \"morpheus\",\n  \"job\": \"zion resident\",\n  \"updatedAt\": \"2024-02-24T12:36:10.245Z\"\n}\n \n"},{"result":{"nanos":705400,"millis":0.7054,"status":"passed"},"step":{"line":57,"prefix":"And","index":5,"text":"match $.name == 'morpheus'"}},{"result":{"nanos":558200,"millis":0.5582,"status":"passed"},"step":{"line":58,"prefix":"And","index":6,"text":"match $.job == 'zion resident'"}}],"executorName":"main","line":45,"name":"patch user","description":"","durationMillis":597.7304,"startTime":1708778169955,"failed":false,"refId":"[4:45]","endTime":1708778170554,"exampleIndex":-1},{"sectionIndex":4,"stepResults":[{"result":{"nanos":229200,"millis":0.2292,"status":"passed"},"step":{"background":true,"line":3,"prefix":"*","index":0,"text":"url 'https:\/\/reqres.in\/'"}},{"result":{"nanos":164500,"millis":0.1645,"status":"passed"},"step":{"background":true,"line":4,"prefix":"*","index":1,"text":"header Accept = 'application\/json'"}},{"result":{"nanos":67900,"millis":0.0679,"status":"passed"},"step":{"line":61,"prefix":"Given","index":0,"text":"path 'api\/users\/2'"}},{"result":{"nanos":385469400,"millis":385.4694,"status":"passed"},"step":{"line":62,"prefix":"When","index":1,"text":"method get"},"stepLog":"18:06:10.568 request:\n1 > GET https:\/\/reqres.in\/api\/users\/2\n1 > Accept: application\/json\n1 > Host: reqres.in\n1 > Connection: Keep-Alive\n1 > User-Agent: Apache-HttpClient\/4.5.14 (Java\/17.0.9)\n1 > Accept-Encoding: gzip,deflate\n\n\n18:06:10.952 response time in milliseconds: 383\n1 < 200\n1 < Date: Sat, 24 Feb 2024 12:36:10 GMT\n1 < Content-Type: application\/json; charset=utf-8\n1 < Transfer-Encoding: chunked\n1 < Connection: keep-alive\n1 < Report-To: {\"group\":\"heroku-nel\",\"max_age\":3600,\"endpoints\":[{\"url\":\"https:\/\/nel.heroku.com\/reports?ts=1708777476&sid=c4c9725f-1ab0-44d8-820f-430df2718e11&s=mKGKeVcxmpOXjwZDFA6rrdZX7queJeFx5ESF8NxpCms%3D\"}]}\n1 < Reporting-Endpoints: heroku-nel=https:\/\/nel.heroku.com\/reports?ts=1708777476&sid=c4c9725f-1ab0-44d8-820f-430df2718e11&s=mKGKeVcxmpOXjwZDFA6rrdZX7queJeFx5ESF8NxpCms%3D\n1 < Nel: {\"report_to\":\"heroku-nel\",\"max_age\":3600,\"success_fraction\":0.005,\"failure_fraction\":0.05,\"response_headers\":[\"Via\"]}\n1 < X-Powered-By: Express\n1 < Access-Control-Allow-Origin: *\n1 < Etag: W\/\"118-pbdwwFo9SKNhD3Lx5iHJyngpq00\"\n1 < Via: 1.1 vegur\n1 < Cache-Control: max-age=14400\n1 < CF-Cache-Status: HIT\n1 < Age: 694\n1 < Vary: Accept-Encoding\n1 < Server: cloudflare\n1 < CF-RAY: 85a7c0ae6d4b8569-BOM\n{\"data\":{\"id\":2,\"email\":\"janet.weaver@reqres.in\",\"first_name\":\"Janet\",\"last_name\":\"Weaver\",\"avatar\":\"https:\/\/reqres.in\/img\/faces\/2-image.jpg\"},\"support\":{\"url\":\"https:\/\/reqres.in\/#support-heading\",\"text\":\"To keep ReqRes free, contributions towards server costs are appreciated!\"}}\n\n"},{"result":{"nanos":9100,"millis":0.0091,"status":"passed"},"step":{"line":63,"prefix":"Then","index":2,"text":"status 200"}},{"result":{"nanos":463600,"millis":0.4636,"status":"passed"},"step":{"line":64,"prefix":"And","index":3,"text":"print response"},"stepLog":"18:06:10.953 [print] {\n  \"data\": {\n    \"id\": 2,\n    \"email\": \"janet.weaver@reqres.in\",\n    \"first_name\": \"Janet\",\n    \"last_name\": \"Weaver\",\n    \"avatar\": \"https:\/\/reqres.in\/img\/faces\/2-image.jpg\"\n  },\n  \"support\": {\n    \"url\": \"https:\/\/reqres.in\/#support-heading\",\n    \"text\": \"To keep ReqRes free, contributions towards server costs are appreciated!\"\n  }\n}\n \n"},{"result":{"nanos":554700,"millis":0.5547,"status":"passed"},"step":{"line":65,"prefix":"And","index":4,"text":"match $.data.id == '#present'"}}],"executorName":"main","line":60,"name":"get single user","description":"","durationMillis":386.9584,"startTime":1708778170566,"failed":false,"refId":"[5:60]","endTime":1708778170954,"exampleIndex":-1},{"sectionIndex":5,"stepResults":[{"result":{"nanos":251300,"millis":0.2513,"status":"passed"},"step":{"background":true,"line":3,"prefix":"*","index":0,"text":"url 'https:\/\/reqres.in\/'"}},{"result":{"nanos":85000,"millis":0.085,"status":"passed"},"step":{"background":true,"line":4,"prefix":"*","index":1,"text":"header Accept = 'application\/json'"}},{"result":{"nanos":40700,"millis":0.0407,"status":"passed"},"step":{"line":68,"prefix":"Given","index":0,"text":"path 'api\/users\/3'"}},{"result":{"nanos":718523000,"millis":718.523,"status":"passed"},"step":{"line":69,"prefix":"When","index":1,"text":"method DELETE"},"stepLog":"18:06:10.962 request:\n1 > DELETE https:\/\/reqres.in\/api\/users\/3\n1 > Accept: application\/json\n1 > Host: reqres.in\n1 > Connection: Keep-Alive\n1 > User-Agent: Apache-HttpClient\/4.5.14 (Java\/17.0.9)\n1 > Accept-Encoding: gzip,deflate\n\n\n18:06:11.678 response time in milliseconds: 709\n1 < 204\n1 < Date: Sat, 24 Feb 2024 12:36:11 GMT\n1 < Content-Length: 0\n1 < Connection: keep-alive\n1 < Report-To: {\"group\":\"heroku-nel\",\"max_age\":3600,\"endpoints\":[{\"url\":\"https:\/\/nel.heroku.com\/reports?ts=1708778171&sid=c4c9725f-1ab0-44d8-820f-430df2718e11&s=eNm6zuQ59iDZQ1nrD5EzJTldhWBLRyMGH9dLg%2BW7KuU%3D\"}]}\n1 < Reporting-Endpoints: heroku-nel=https:\/\/nel.heroku.com\/reports?ts=1708778171&sid=c4c9725f-1ab0-44d8-820f-430df2718e11&s=eNm6zuQ59iDZQ1nrD5EzJTldhWBLRyMGH9dLg%2BW7KuU%3D\n1 < Nel: {\"report_to\":\"heroku-nel\",\"max_age\":3600,\"success_fraction\":0.005,\"failure_fraction\":0.05,\"response_headers\":[\"Via\"]}\n1 < X-Powered-By: Express\n1 < Access-Control-Allow-Origin: *\n1 < Etag: W\/\"2-vyGp6PvFo4RvsFtPoIWeCReyIC8\"\n1 < Via: 1.1 vegur\n1 < CF-Cache-Status: DYNAMIC\n1 < Server: cloudflare\n1 < CF-RAY: 85a7c0b10ef35993-DEL\n\n\n"},{"result":{"nanos":18000,"millis":0.018,"status":"passed"},"step":{"line":70,"prefix":"Then","index":2,"text":"status 204"}},{"result":{"nanos":584500,"millis":0.5845,"status":"passed"},"step":{"line":71,"prefix":"And","index":3,"text":"print response"},"stepLog":"18:06:11.680 [print]  \n"}],"executorName":"main","line":67,"name":"delete user","description":"","durationMillis":719.5025,"startTime":1708778170959,"failed":false,"refId":"[6:67]","endTime":1708778171680,"exampleIndex":-1}],"callDepth":0,"name":"check all users","description":"","resultDate":"2024-02-24 06:06:11 pm","durationMillis":3785.3159,"passedCount":6}