{"failedCount":1,"prefixedPath":"src\/test\/java\/feature\/demoApi.feature","packageQualifiedName":"src.test.java.feature.demoApi","loopIndex":-1,"relativePath":"src\/test\/java\/feature\/demoApi.feature","scenarioResults":[{"sectionIndex":0,"stepResults":[{"result":{"nanos":55145100,"millis":55.1451,"status":"passed"},"step":{"background":true,"line":3,"prefix":"*","index":0,"text":"url 'https:\/\/reqres.in\/'"}},{"result":{"nanos":792600,"millis":0.7926,"status":"passed"},"step":{"background":true,"line":4,"prefix":"*","index":1,"text":"header Accept = 'application\/json'"}},{"result":{"nanos":436700,"millis":0.4367,"status":"passed"},"step":{"line":8,"prefix":"Given","index":0,"text":"path 'api\/users'"}},{"result":{"nanos":25558500,"millis":25.5585,"status":"passed"},"step":{"endLine":15,"line":9,"prefix":"And","docString":"{\n    \"name\": \"Komal\",\n    \"job\": \"Tester\"\n}","index":1,"text":"request"}},{"result":{"nanos":862716300,"millis":862.7163,"status":"passed"},"step":{"line":16,"prefix":"When","index":2,"text":"method POST"},"stepLog":"17:27:52.662 request:\n1 > POST https:\/\/reqres.in\/api\/users\n1 > Accept: application\/json\n1 > Content-Type: application\/json; charset=UTF-8\n1 > Content-Length: 31\n1 > Host: reqres.in\n1 > Connection: Keep-Alive\n1 > User-Agent: Apache-HttpClient\/4.5.14 (Java\/17.0.9)\n1 > Accept-Encoding: gzip,deflate\n{\"name\":\"Komal\",\"job\":\"Tester\"}\n\n17:27:53.273 response time in milliseconds: 607\n1 < 201\n1 < Date: Sat, 24 Feb 2024 11:57:53 GMT\n1 < Content-Type: application\/json; charset=utf-8\n1 < Content-Length: 81\n1 < Connection: keep-alive\n1 < Report-To: {\"group\":\"heroku-nel\",\"max_age\":3600,\"endpoints\":[{\"url\":\"https:\/\/nel.heroku.com\/reports?ts=1708775872&sid=c4c9725f-1ab0-44d8-820f-430df2718e11&s=epECFA3Kz%2FY%2B3nhUd9yWSla8K49i9Die7hZ3XZrEv%2FA%3D\"}]}\n1 < Reporting-Endpoints: heroku-nel=https:\/\/nel.heroku.com\/reports?ts=1708775872&sid=c4c9725f-1ab0-44d8-820f-430df2718e11&s=epECFA3Kz%2FY%2B3nhUd9yWSla8K49i9Die7hZ3XZrEv%2FA%3D\n1 < Nel: {\"report_to\":\"heroku-nel\",\"max_age\":3600,\"success_fraction\":0.005,\"failure_fraction\":0.05,\"response_headers\":[\"Via\"]}\n1 < X-Powered-By: Express\n1 < Access-Control-Allow-Origin: *\n1 < Etag: W\/\"51-PPYaD\/EMxiI+zIm6U5R9PG8uABk\"\n1 < Via: 1.1 vegur\n1 < CF-Cache-Status: DYNAMIC\n1 < Server: cloudflare\n1 < CF-RAY: 85a78894dc681bd3-BOM\n{\"name\":\"Komal\",\"job\":\"Tester\",\"id\":\"578\",\"createdAt\":\"2024-02-24T11:57:52.982Z\"}\n\n"},{"result":{"nanos":20700,"millis":0.0207,"status":"passed"},"step":{"line":17,"prefix":"Then","index":3,"text":"status 201"}},{"result":{"nanos":49999000,"millis":49.999,"status":"passed"},"step":{"line":18,"prefix":"And","index":4,"text":"print response"},"stepLog":"17:27:53.324 [print] {\n  \"name\": \"Komal\",\n  \"job\": \"Tester\",\n  \"id\": \"578\",\n  \"createdAt\": \"2024-02-24T11:57:52.982Z\"\n}\n \n"},{"result":{"nanos":21191000,"millis":21.191,"status":"passed"},"step":{"line":19,"prefix":"And","index":5,"text":"match $.name == 'Komal'"}},{"result":{"nanos":1185000,"millis":1.185,"status":"passed"},"step":{"line":20,"prefix":"And","index":6,"text":"match $.job == 'Tester'"}},{"result":{"nanos":1444100,"millis":1.4441,"status":"passed"},"step":{"line":21,"prefix":"And","index":7,"text":"match $.id == '#present'"}},{"result":{"nanos":1015800,"millis":1.0158,"status":"passed"},"step":{"line":22,"prefix":"*","index":8,"text":"def id =  $.id"}}],"executorName":"main","line":7,"name":"post new user","description":"","durationMillis":1019.5048,"startTime":1708775872314,"failed":false,"refId":"[1:7]","endTime":1708775873350,"exampleIndex":-1},{"sectionIndex":1,"stepResults":[{"result":{"nanos":608100,"millis":0.6081,"status":"passed"},"step":{"background":true,"line":3,"prefix":"*","index":0,"text":"url 'https:\/\/reqres.in\/'"}},{"result":{"nanos":390200,"millis":0.3902,"status":"passed"},"step":{"background":true,"line":4,"prefix":"*","index":1,"text":"header Accept = 'application\/json'"}},{"result":{"nanos":211300,"millis":0.2113,"status":"passed"},"step":{"line":25,"prefix":"Given","index":0,"text":"path 'api\/users'"}},{"result":{"nanos":265900500,"millis":265.9005,"status":"passed"},"step":{"line":26,"prefix":"When","index":1,"text":"method GET"},"stepLog":"17:27:53.360 request:\n1 > GET https:\/\/reqres.in\/api\/users\n1 > Accept: application\/json\n1 > Host: reqres.in\n1 > Connection: Keep-Alive\n1 > User-Agent: Apache-HttpClient\/4.5.14 (Java\/17.0.9)\n1 > Accept-Encoding: gzip,deflate\n\n\n17:27:53.623 response time in milliseconds: 262\n1 < 200\n1 < Date: Sat, 24 Feb 2024 11:57:53 GMT\n1 < Content-Type: application\/json; charset=utf-8\n1 < Transfer-Encoding: chunked\n1 < Connection: keep-alive\n1 < Report-To: {\"group\":\"heroku-nel\",\"max_age\":3600,\"endpoints\":[{\"url\":\"https:\/\/nel.heroku.com\/reports?ts=1707279068&sid=c4c9725f-1ab0-44d8-820f-430df2718e11&s=3kMiQjbGyLjlyEpvW%2FBdHtQWEn6Me5oE0JCqLowkN70%3D\"}]}\n1 < Reporting-Endpoints: heroku-nel=https:\/\/nel.heroku.com\/reports?ts=1707279068&sid=c4c9725f-1ab0-44d8-820f-430df2718e11&s=3kMiQjbGyLjlyEpvW%2FBdHtQWEn6Me5oE0JCqLowkN70%3D\n1 < Nel: {\"report_to\":\"heroku-nel\",\"max_age\":3600,\"success_fraction\":0.005,\"failure_fraction\":0.05,\"response_headers\":[\"Via\"]}\n1 < X-Powered-By: Express\n1 < Access-Control-Allow-Origin: *\n1 < Etag: W\/\"3e4-2RLXvr5wTg9YQ6aH95CkYoFNuO8\"\n1 < Via: 1.1 vegur\n1 < Cache-Control: max-age=14400\n1 < CF-Cache-Status: HIT\n1 < Age: 5126\n1 < Vary: Accept-Encoding\n1 < Server: cloudflare\n1 < CF-RAY: 85a78899390085d9-BOM\n{\"page\":1,\"per_page\":6,\"total\":12,\"total_pages\":2,\"data\":[{\"id\":1,\"email\":\"george.bluth@reqres.in\",\"first_name\":\"George\",\"last_name\":\"Bluth\",\"avatar\":\"https:\/\/reqres.in\/img\/faces\/1-image.jpg\"},{\"id\":2,\"email\":\"janet.weaver@reqres.in\",\"first_name\":\"Janet\",\"last_name\":\"Weaver\",\"avatar\":\"https:\/\/reqres.in\/img\/faces\/2-image.jpg\"},{\"id\":3,\"email\":\"emma.wong@reqres.in\",\"first_name\":\"Emma\",\"last_name\":\"Wong\",\"avatar\":\"https:\/\/reqres.in\/img\/faces\/3-image.jpg\"},{\"id\":4,\"email\":\"eve.holt@reqres.in\",\"first_name\":\"Eve\",\"last_name\":\"Holt\",\"avatar\":\"https:\/\/reqres.in\/img\/faces\/4-image.jpg\"},{\"id\":5,\"email\":\"charles.morris@reqres.in\",\"first_name\":\"Charles\",\"last_name\":\"Morris\",\"avatar\":\"https:\/\/reqres.in\/img\/faces\/5-image.jpg\"},{\"id\":6,\"email\":\"tracey.ramos@reqres.in\",\"first_name\":\"Tracey\",\"last_name\":\"Ramos\",\"avatar\":\"https:\/\/reqres.in\/img\/faces\/6-image.jpg\"}],\"support\":{\"url\":\"https:\/\/reqres.in\/#support-heading\",\"text\":\"To keep ReqRes free, contributions towards server costs are appreciated!\"}}\n\n"},{"result":{"nanos":9000,"millis":0.009,"status":"passed"},"step":{"line":27,"prefix":"Then","index":2,"text":"status 200"}},{"result":{"nanos":1617600,"millis":1.6176,"status":"passed"},"step":{"line":28,"prefix":"And","index":3,"text":"print response"},"stepLog":"17:27:53.625 [print] {\n  \"page\": 1,\n  \"per_page\": 6,\n  \"total\": 12,\n  \"total_pages\": 2,\n  \"data\": [\n    {\n      \"id\": 1,\n      \"email\": \"george.bluth@reqres.in\",\n      \"first_name\": \"George\",\n      \"last_name\": \"Bluth\",\n      \"avatar\": \"https:\/\/reqres.in\/img\/faces\/1-image.jpg\"\n    },\n    {\n      \"id\": 2,\n      \"email\": \"janet.weaver@reqres.in\",\n      \"first_name\": \"Janet\",\n      \"last_name\": \"Weaver\",\n      \"avatar\": \"https:\/\/reqres.in\/img\/faces\/2-image.jpg\"\n    },\n    {\n      \"id\": 3,\n      \"email\": \"emma.wong@reqres.in\",\n      \"first_name\": \"Emma\",\n      \"last_name\": \"Wong\",\n      \"avatar\": \"https:\/\/reqres.in\/img\/faces\/3-image.jpg\"\n    },\n    {\n      \"id\": 4,\n      \"email\": \"eve.holt@reqres.in\",\n      \"first_name\": \"Eve\",\n      \"last_name\": \"Holt\",\n      \"avatar\": \"https:\/\/reqres.in\/img\/faces\/4-image.jpg\"\n    },\n    {\n      \"id\": 5,\n      \"email\": \"charles.morris@reqres.in\",\n      \"first_name\": \"Charles\",\n      \"last_name\": \"Morris\",\n      \"avatar\": \"https:\/\/reqres.in\/img\/faces\/5-image.jpg\"\n    },\n    {\n      \"id\": 6,\n      \"email\": \"tracey.ramos@reqres.in\",\n      \"first_name\": \"Tracey\",\n      \"last_name\": \"Ramos\",\n      \"avatar\": \"https:\/\/reqres.in\/img\/faces\/6-image.jpg\"\n    }\n  ],\n  \"support\": {\n    \"url\": \"https:\/\/reqres.in\/#support-heading\",\n    \"text\": \"To keep ReqRes free, contributions towards server costs are appreciated!\"\n  }\n}\n \n"}],"executorName":"main","line":24,"name":"get all users","description":"","durationMillis":268.7367,"startTime":1708775873355,"failed":false,"refId":"[2:24]","endTime":1708775873625,"exampleIndex":-1},{"sectionIndex":2,"stepResults":[{"result":{"nanos":180100,"millis":0.1801,"status":"passed"},"step":{"background":true,"line":3,"prefix":"*","index":0,"text":"url 'https:\/\/reqres.in\/'"}},{"result":{"nanos":123900,"millis":0.1239,"status":"passed"},"step":{"background":true,"line":4,"prefix":"*","index":1,"text":"header Accept = 'application\/json'"}},{"result":{"nanos":339800,"millis":0.3398,"status":"passed"},"step":{"line":31,"prefix":"Given","index":0,"text":"path 'api\/users\/3'"}},{"result":{"nanos":212600,"millis":0.2126,"status":"passed"},"step":{"endLine":38,"line":32,"prefix":"And","docString":"{\n    \"name\": \"morpheus\",\n    \"job\": \"zion resident\"\n}","index":1,"text":"request"}},{"result":{"nanos":661385700,"millis":661.3857,"status":"passed"},"step":{"line":39,"prefix":"When","index":2,"text":"method PUT"},"stepLog":"17:27:53.634 request:\n1 > PUT https:\/\/reqres.in\/api\/users\/3\n1 > Accept: application\/json\n1 > Content-Type: application\/json; charset=UTF-8\n1 > Content-Length: 41\n1 > Host: reqres.in\n1 > Connection: Keep-Alive\n1 > User-Agent: Apache-HttpClient\/4.5.14 (Java\/17.0.9)\n1 > Accept-Encoding: gzip,deflate\n{\"name\":\"morpheus\",\"job\":\"zion resident\"}\n\n17:27:54.293 response time in milliseconds: 656\n1 < 200\n1 < Date: Sat, 24 Feb 2024 11:57:54 GMT\n1 < Content-Type: application\/json; charset=utf-8\n1 < Transfer-Encoding: chunked\n1 < Connection: keep-alive\n1 < Report-To: {\"group\":\"heroku-nel\",\"max_age\":3600,\"endpoints\":[{\"url\":\"https:\/\/nel.heroku.com\/reports?ts=1708775873&sid=c4c9725f-1ab0-44d8-820f-430df2718e11&s=7PUi4P7oAZy%2FKFG87pAocnwNqXhs7mhpwSLUwLNoOEM%3D\"}]}\n1 < Reporting-Endpoints: heroku-nel=https:\/\/nel.heroku.com\/reports?ts=1708775873&sid=c4c9725f-1ab0-44d8-820f-430df2718e11&s=7PUi4P7oAZy%2FKFG87pAocnwNqXhs7mhpwSLUwLNoOEM%3D\n1 < Nel: {\"report_to\":\"heroku-nel\",\"max_age\":3600,\"success_fraction\":0.005,\"failure_fraction\":0.05,\"response_headers\":[\"Via\"]}\n1 < X-Powered-By: Express\n1 < Access-Control-Allow-Origin: *\n1 < Etag: W\/\"50-7bEOnfG05akRhSGgD0Xgtxpyqvg\"\n1 < Via: 1.1 vegur\n1 < CF-Cache-Status: DYNAMIC\n1 < Vary: Accept-Encoding\n1 < Server: cloudflare\n1 < CF-RAY: 85a7889b29f9f435-BOM\n{\"name\":\"morpheus\",\"job\":\"zion resident\",\"updatedAt\":\"2024-02-24T11:57:53.997Z\"}\n\n"},{"result":{"nanos":9800,"millis":0.0098,"status":"passed"},"step":{"line":40,"prefix":"Then","index":3,"text":"status 200"}},{"result":{"nanos":436800,"millis":0.4368,"status":"passed"},"step":{"line":41,"prefix":"And","index":4,"text":"print response"},"stepLog":"17:27:54.295 [print] {\n  \"name\": \"morpheus\",\n  \"job\": \"zion resident\",\n  \"updatedAt\": \"2024-02-24T11:57:53.997Z\"\n}\n \n"},{"result":{"nanos":675900,"millis":0.6759,"status":"passed"},"step":{"line":42,"prefix":"And","index":5,"text":"match $.name == 'morpheus'"}},{"result":{"nanos":529900,"millis":0.5299,"status":"passed"},"step":{"line":43,"prefix":"And","index":6,"text":"match $.job == 'zion resident'"}}],"executorName":"main","line":30,"name":"put user","description":"","durationMillis":663.8945,"startTime":1708775873632,"failed":false,"refId":"[3:30]","endTime":1708775874296,"exampleIndex":-1},{"sectionIndex":3,"stepResults":[{"result":{"nanos":167300,"millis":0.1673,"status":"passed"},"step":{"background":true,"line":3,"prefix":"*","index":0,"text":"url 'https:\/\/reqres.in\/'"}},{"result":{"nanos":145500,"millis":0.1455,"status":"passed"},"step":{"background":true,"line":4,"prefix":"*","index":1,"text":"header Accept = 'application\/json'"}},{"result":{"nanos":263900,"millis":0.2639,"status":"passed"},"step":{"line":46,"prefix":"Given","index":0,"text":"path 'api\/users\/2'"}},{"result":{"nanos":629223700,"millis":629.2237,"status":"passed"},"step":{"line":47,"prefix":"When","index":1,"text":"method get"},"stepLog":"17:27:54.305 request:\n1 > GET https:\/\/reqres.in\/api\/users\/2\n1 > Accept: application\/json\n1 > Host: reqres.in\n1 > Connection: Keep-Alive\n1 > User-Agent: Apache-HttpClient\/4.5.14 (Java\/17.0.9)\n1 > Accept-Encoding: gzip,deflate\n\n\n17:27:54.933 response time in milliseconds: 627\n1 < 200\n1 < Date: Sat, 24 Feb 2024 11:57:54 GMT\n1 < Content-Type: application\/json; charset=utf-8\n1 < Transfer-Encoding: chunked\n1 < Connection: keep-alive\n1 < Report-To: {\"group\":\"heroku-nel\",\"max_age\":3600,\"endpoints\":[{\"url\":\"https:\/\/nel.heroku.com\/reports?ts=1708763188&sid=c4c9725f-1ab0-44d8-820f-430df2718e11&s=y35e0%2BBbaad%2BJ0Jk4iWjmK%2FzPqTumtTf%2FEje9mWhCGQ%3D\"}]}\n1 < Reporting-Endpoints: heroku-nel=https:\/\/nel.heroku.com\/reports?ts=1708763188&sid=c4c9725f-1ab0-44d8-820f-430df2718e11&s=y35e0%2BBbaad%2BJ0Jk4iWjmK%2FzPqTumtTf%2FEje9mWhCGQ%3D\n1 < Nel: {\"report_to\":\"heroku-nel\",\"max_age\":3600,\"success_fraction\":0.005,\"failure_fraction\":0.05,\"response_headers\":[\"Via\"]}\n1 < X-Powered-By: Express\n1 < Access-Control-Allow-Origin: *\n1 < Etag: W\/\"118-pbdwwFo9SKNhD3Lx5iHJyngpq00\"\n1 < Via: 1.1 vegur\n1 < Cache-Control: max-age=14400\n1 < CF-Cache-Status: HIT\n1 < Age: 5431\n1 < Vary: Accept-Encoding\n1 < Server: cloudflare\n1 < CF-RAY: 85a788a17cc4f425-BOM\n{\"data\":{\"id\":2,\"email\":\"janet.weaver@reqres.in\",\"first_name\":\"Janet\",\"last_name\":\"Weaver\",\"avatar\":\"https:\/\/reqres.in\/img\/faces\/2-image.jpg\"},\"support\":{\"url\":\"https:\/\/reqres.in\/#support-heading\",\"text\":\"To keep ReqRes free, contributions towards server costs are appreciated!\"}}\n\n"},{"result":{"nanos":8200,"millis":0.0082,"status":"passed"},"step":{"line":48,"prefix":"Then","index":2,"text":"status 200"}},{"result":{"nanos":457800,"millis":0.4578,"status":"passed"},"step":{"line":49,"prefix":"And","index":3,"text":"print response"},"stepLog":"17:27:54.934 [print] {\n  \"data\": {\n    \"id\": 2,\n    \"email\": \"janet.weaver@reqres.in\",\n    \"first_name\": \"Janet\",\n    \"last_name\": \"Weaver\",\n    \"avatar\": \"https:\/\/reqres.in\/img\/faces\/2-image.jpg\"\n  },\n  \"support\": {\n    \"url\": \"https:\/\/reqres.in\/#support-heading\",\n    \"text\": \"To keep ReqRes free, contributions towards server costs are appreciated!\"\n  }\n}\n \n"},{"result":{"nanos":495500,"millis":0.4955,"status":"passed"},"step":{"line":50,"prefix":"And","index":4,"text":"match $.data.id == '#present'"}}],"executorName":"main","line":45,"name":"get single user","description":"","durationMillis":630.7619,"startTime":1708775874303,"failed":false,"refId":"[4:45]","endTime":1708775874935,"exampleIndex":-1},{"sectionIndex":4,"stepResults":[{"result":{"nanos":175800,"millis":0.1758,"status":"passed"},"step":{"background":true,"line":3,"prefix":"*","index":0,"text":"url 'https:\/\/reqres.in\/'"}},{"result":{"nanos":114500,"millis":0.1145,"status":"passed"},"step":{"background":true,"line":4,"prefix":"*","index":1,"text":"header Accept = 'application\/json'"}},{"result":{"nanos":20330100,"errorMessage":"js failed:\n>>>>\n01: 'api\/users\/' +$.data.id\n<<<<\norg.graalvm.polyglot.PolyglotException: ReferenceError: \"$\" is not defined\n- <js>.:program(Unnamed:1)\n\nsrc\/test\/java\/feature\/demoApi.feature:53","millis":20.3301,"status":"failed"},"step":{"line":53,"prefix":"Given","index":0,"text":"path 'api\/users\/' +$.data.id"},"stepLog":"17:27:54.963 src\/test\/java\/feature\/demoApi.feature:53\nGiven path 'api\/users\/' +$.data.id\njs failed:\n>>>>\n01: 'api\/users\/' +$.data.id\n<<<<\norg.graalvm.polyglot.PolyglotException: ReferenceError: \"$\" is not defined\n- <js>.:program(Unnamed:1)\n\nsrc\/test\/java\/feature\/demoApi.feature:53\n"},{"result":{"nanos":0,"millis":0.0,"status":"skipped"},"step":{"line":54,"prefix":"When","index":1,"text":"method DELETE"}},{"result":{"nanos":0,"millis":0.0,"status":"skipped"},"step":{"line":55,"prefix":"Then","index":2,"text":"status 204"}},{"result":{"nanos":0,"millis":0.0,"status":"skipped"},"step":{"line":56,"prefix":"And","index":3,"text":"print response"}}],"line":52,"description":"","durationMillis":20.6204,"failed":true,"error":"js failed:\n>>>>\n01: 'api\/users\/' +$.data.id\n<<<<\norg.graalvm.polyglot.PolyglotException: ReferenceError: \"$\" is not defined\n- <js>.:program(Unnamed:1)\n\nsrc\/test\/java\/feature\/demoApi.feature:53","executorName":"main","name":"delete user","startTime":1708775874940,"refId":"[5:52]","endTime":1708775874963,"exampleIndex":-1}],"callDepth":0,"name":"check all users","description":"","resultDate":"2024-02-24 05:27:54 pm","durationMillis":2603.5183,"passedCount":4}