{"failedCount":2,"prefixedPath":"src\/test\/java\/feature\/demoApi.feature","packageQualifiedName":"src.test.java.feature.demoApi","loopIndex":-1,"relativePath":"src\/test\/java\/feature\/demoApi.feature","scenarioResults":[{"sectionIndex":0,"stepResults":[{"result":{"nanos":55682600,"millis":55.6826,"status":"passed"},"step":{"background":true,"line":3,"prefix":"*","index":0,"text":"url 'https:\/\/reqres.in\/'"}},{"result":{"nanos":572800,"millis":0.5728,"status":"passed"},"step":{"background":true,"line":4,"prefix":"*","index":1,"text":"header Accept = 'application\/json'"}},{"result":{"nanos":316600,"millis":0.3166,"status":"passed"},"step":{"line":8,"prefix":"Given","index":0,"text":"path 'api\/users'"}},{"result":{"nanos":26365300,"millis":26.3653,"status":"passed"},"step":{"endLine":15,"line":9,"prefix":"And","docString":"{\n    \"name\": \"Komal\",\n    \"job\": \"Tester\"\n}","index":1,"text":"request"}},{"result":{"nanos":1650023200,"millis":1650.0232,"status":"passed"},"step":{"line":16,"prefix":"When","index":2,"text":"method POST"},"stepLog":"17:25:54.667 request:\n1 > POST https:\/\/reqres.in\/api\/users\n1 > Accept: application\/json\n1 > Content-Type: application\/json; charset=UTF-8\n1 > Content-Length: 31\n1 > Host: reqres.in\n1 > Connection: Keep-Alive\n1 > User-Agent: Apache-HttpClient\/4.5.14 (Java\/17.0.9)\n1 > Accept-Encoding: gzip,deflate\n{\"name\":\"Komal\",\"job\":\"Tester\"}\n\n17:25:56.025 response time in milliseconds: 1352\n1 < 201\n1 < Date: Sat, 24 Feb 2024 11:55:55 GMT\n1 < Content-Type: application\/json; charset=utf-8\n1 < Content-Length: 81\n1 < Connection: keep-alive\n1 < Report-To: {\"group\":\"heroku-nel\",\"max_age\":3600,\"endpoints\":[{\"url\":\"https:\/\/nel.heroku.com\/reports?ts=1708775755&sid=c4c9725f-1ab0-44d8-820f-430df2718e11&s=hHRF9wroqVR0l4sX8zYpnQhAMzW%2FC56u2c57w8yfPJo%3D\"}]}\n1 < Reporting-Endpoints: heroku-nel=https:\/\/nel.heroku.com\/reports?ts=1708775755&sid=c4c9725f-1ab0-44d8-820f-430df2718e11&s=hHRF9wroqVR0l4sX8zYpnQhAMzW%2FC56u2c57w8yfPJo%3D\n1 < Nel: {\"report_to\":\"heroku-nel\",\"max_age\":3600,\"success_fraction\":0.005,\"failure_fraction\":0.05,\"response_headers\":[\"Via\"]}\n1 < X-Powered-By: Express\n1 < Access-Control-Allow-Origin: *\n1 < Etag: W\/\"51-Hj6FR36QfR2tG0DNGKEr9d1UH+8\"\n1 < Via: 1.1 vegur\n1 < CF-Cache-Status: DYNAMIC\n1 < Server: cloudflare\n1 < CF-RAY: 85a785b84dfa320b-BOM\n{\"name\":\"Komal\",\"job\":\"Tester\",\"id\":\"776\",\"createdAt\":\"2024-02-24T11:55:55.795Z\"}\n\n"},{"result":{"nanos":23600,"millis":0.0236,"status":"passed"},"step":{"line":17,"prefix":"Then","index":3,"text":"status 201"}},{"result":{"nanos":50847600,"millis":50.8476,"status":"passed"},"step":{"line":18,"prefix":"And","index":4,"text":"print response"},"stepLog":"17:25:56.080 [print] {\n  \"name\": \"Komal\",\n  \"job\": \"Tester\",\n  \"id\": \"776\",\n  \"createdAt\": \"2024-02-24T11:55:55.795Z\"\n}\n \n"},{"result":{"nanos":19566700,"millis":19.5667,"status":"passed"},"step":{"line":19,"prefix":"And","index":5,"text":"match $.name == 'Komal'"}},{"result":{"nanos":830500,"millis":0.8305,"status":"passed"},"step":{"line":20,"prefix":"And","index":6,"text":"match $.job == 'Tester'"}},{"result":{"nanos":646600,"millis":0.6466,"status":"passed"},"step":{"line":21,"prefix":"And","index":7,"text":"match $.id == '#present'"}},{"result":{"nanos":461600,"millis":0.4616,"status":"passed"},"step":{"line":22,"prefix":"*","index":8,"text":"def id =  $.id"}}],"executorName":"main","line":7,"name":"post new user","description":"","durationMillis":1805.3371,"startTime":1708775754284,"failed":false,"refId":"[1:7]","endTime":1708775756102,"exampleIndex":-1},{"sectionIndex":1,"stepResults":[{"result":{"nanos":399800,"millis":0.3998,"status":"passed"},"step":{"background":true,"line":3,"prefix":"*","index":0,"text":"url 'https:\/\/reqres.in\/'"}},{"result":{"nanos":495800,"millis":0.4958,"status":"passed"},"step":{"background":true,"line":4,"prefix":"*","index":1,"text":"header Accept = 'application\/json'"}},{"result":{"nanos":693700,"millis":0.6937,"status":"passed"},"step":{"line":25,"prefix":"Given","index":0,"text":"path 'api\/users'"}},{"result":{"nanos":156567500,"millis":156.5675,"status":"passed"},"step":{"line":26,"prefix":"When","index":1,"text":"method GET"},"stepLog":"17:25:56.109 request:\n1 > GET https:\/\/reqres.in\/api\/users\n1 > Accept: application\/json\n1 > Host: reqres.in\n1 > Connection: Keep-Alive\n1 > User-Agent: Apache-HttpClient\/4.5.14 (Java\/17.0.9)\n1 > Accept-Encoding: gzip,deflate\n\n\n17:25:56.263 response time in milliseconds: 153\n1 < 200\n1 < Date: Sat, 24 Feb 2024 11:55:56 GMT\n1 < Content-Type: application\/json; charset=utf-8\n1 < Transfer-Encoding: chunked\n1 < Connection: keep-alive\n1 < Report-To: {\"group\":\"heroku-nel\",\"max_age\":3600,\"endpoints\":[{\"url\":\"https:\/\/nel.heroku.com\/reports?ts=1708656201&sid=c4c9725f-1ab0-44d8-820f-430df2718e11&s=1VSe85onHLXZafD90C8LGc%2FrKAhhjxUkgstsmG8CEO0%3D\"}]}\n1 < Reporting-Endpoints: heroku-nel=https:\/\/nel.heroku.com\/reports?ts=1708656201&sid=c4c9725f-1ab0-44d8-820f-430df2718e11&s=1VSe85onHLXZafD90C8LGc%2FrKAhhjxUkgstsmG8CEO0%3D\n1 < Nel: {\"report_to\":\"heroku-nel\",\"max_age\":3600,\"success_fraction\":0.005,\"failure_fraction\":0.05,\"response_headers\":[\"Via\"]}\n1 < X-Powered-By: Express\n1 < Access-Control-Allow-Origin: *\n1 < Etag: W\/\"3e4-2RLXvr5wTg9YQ6aH95CkYoFNuO8\"\n1 < Via: 1.1 vegur\n1 < Cache-Control: max-age=14400\n1 < CF-Cache-Status: HIT\n1 < Age: 3900\n1 < Vary: Accept-Encoding\n1 < Server: cloudflare\n1 < CF-RAY: 85a785bbb885f388-BOM\n{\"page\":1,\"per_page\":6,\"total\":12,\"total_pages\":2,\"data\":[{\"id\":1,\"email\":\"george.bluth@reqres.in\",\"first_name\":\"George\",\"last_name\":\"Bluth\",\"avatar\":\"https:\/\/reqres.in\/img\/faces\/1-image.jpg\"},{\"id\":2,\"email\":\"janet.weaver@reqres.in\",\"first_name\":\"Janet\",\"last_name\":\"Weaver\",\"avatar\":\"https:\/\/reqres.in\/img\/faces\/2-image.jpg\"},{\"id\":3,\"email\":\"emma.wong@reqres.in\",\"first_name\":\"Emma\",\"last_name\":\"Wong\",\"avatar\":\"https:\/\/reqres.in\/img\/faces\/3-image.jpg\"},{\"id\":4,\"email\":\"eve.holt@reqres.in\",\"first_name\":\"Eve\",\"last_name\":\"Holt\",\"avatar\":\"https:\/\/reqres.in\/img\/faces\/4-image.jpg\"},{\"id\":5,\"email\":\"charles.morris@reqres.in\",\"first_name\":\"Charles\",\"last_name\":\"Morris\",\"avatar\":\"https:\/\/reqres.in\/img\/faces\/5-image.jpg\"},{\"id\":6,\"email\":\"tracey.ramos@reqres.in\",\"first_name\":\"Tracey\",\"last_name\":\"Ramos\",\"avatar\":\"https:\/\/reqres.in\/img\/faces\/6-image.jpg\"}],\"support\":{\"url\":\"https:\/\/reqres.in\/#support-heading\",\"text\":\"To keep ReqRes free, contributions towards server costs are appreciated!\"}}\n\n"},{"result":{"nanos":7900,"millis":0.0079,"status":"passed"},"step":{"line":27,"prefix":"Then","index":2,"text":"status 200"}},{"result":{"nanos":1008300,"millis":1.0083,"status":"passed"},"step":{"line":28,"prefix":"And","index":3,"text":"print response"},"stepLog":"17:25:56.266 [print] {\n  \"page\": 1,\n  \"per_page\": 6,\n  \"total\": 12,\n  \"total_pages\": 2,\n  \"data\": [\n    {\n      \"id\": 1,\n      \"email\": \"george.bluth@reqres.in\",\n      \"first_name\": \"George\",\n      \"last_name\": \"Bluth\",\n      \"avatar\": \"https:\/\/reqres.in\/img\/faces\/1-image.jpg\"\n    },\n    {\n      \"id\": 2,\n      \"email\": \"janet.weaver@reqres.in\",\n      \"first_name\": \"Janet\",\n      \"last_name\": \"Weaver\",\n      \"avatar\": \"https:\/\/reqres.in\/img\/faces\/2-image.jpg\"\n    },\n    {\n      \"id\": 3,\n      \"email\": \"emma.wong@reqres.in\",\n      \"first_name\": \"Emma\",\n      \"last_name\": \"Wong\",\n      \"avatar\": \"https:\/\/reqres.in\/img\/faces\/3-image.jpg\"\n    },\n    {\n      \"id\": 4,\n      \"email\": \"eve.holt@reqres.in\",\n      \"first_name\": \"Eve\",\n      \"last_name\": \"Holt\",\n      \"avatar\": \"https:\/\/reqres.in\/img\/faces\/4-image.jpg\"\n    },\n    {\n      \"id\": 5,\n      \"email\": \"charles.morris@reqres.in\",\n      \"first_name\": \"Charles\",\n      \"last_name\": \"Morris\",\n      \"avatar\": \"https:\/\/reqres.in\/img\/faces\/5-image.jpg\"\n    },\n    {\n      \"id\": 6,\n      \"email\": \"tracey.ramos@reqres.in\",\n      \"first_name\": \"Tracey\",\n      \"last_name\": \"Ramos\",\n      \"avatar\": \"https:\/\/reqres.in\/img\/faces\/6-image.jpg\"\n    }\n  ],\n  \"support\": {\n    \"url\": \"https:\/\/reqres.in\/#support-heading\",\n    \"text\": \"To keep ReqRes free, contributions towards server costs are appreciated!\"\n  }\n}\n \n"}],"executorName":"main","line":24,"name":"get all users","description":"","durationMillis":159.173,"startTime":1708775756105,"failed":false,"refId":"[2:24]","endTime":1708775756266,"exampleIndex":-1},{"sectionIndex":2,"stepResults":[{"result":{"nanos":133400,"millis":0.1334,"status":"passed"},"step":{"background":true,"line":3,"prefix":"*","index":0,"text":"url 'https:\/\/reqres.in\/'"}},{"result":{"nanos":90200,"millis":0.0902,"status":"passed"},"step":{"background":true,"line":4,"prefix":"*","index":1,"text":"header Accept = 'application\/json'"}},{"result":{"nanos":255000,"millis":0.255,"status":"passed"},"step":{"line":31,"prefix":"Given","index":0,"text":"path 'api\/users\/2'"}},{"result":{"nanos":196300,"millis":0.1963,"status":"passed"},"step":{"endLine":38,"line":32,"prefix":"And","docString":"{\n    \"name\": \"morpheus\",\n    \"job\": \"zion resident\"\n}","index":1,"text":"request"}},{"result":{"nanos":674074400,"millis":674.0744,"status":"passed"},"step":{"line":39,"prefix":"When","index":2,"text":"method PUT"},"stepLog":"17:25:56.270 request:\n1 > PUT https:\/\/reqres.in\/api\/users\/2\n1 > Accept: application\/json\n1 > Content-Type: application\/json; charset=UTF-8\n1 > Content-Length: 41\n1 > Host: reqres.in\n1 > Connection: Keep-Alive\n1 > User-Agent: Apache-HttpClient\/4.5.14 (Java\/17.0.9)\n1 > Accept-Encoding: gzip,deflate\n{\"name\":\"morpheus\",\"job\":\"zion resident\"}\n\n17:25:56.942 response time in milliseconds: 670\n1 < 200\n1 < Date: Sat, 24 Feb 2024 11:55:56 GMT\n1 < Content-Type: application\/json; charset=utf-8\n1 < Transfer-Encoding: chunked\n1 < Connection: keep-alive\n1 < Report-To: {\"group\":\"heroku-nel\",\"max_age\":3600,\"endpoints\":[{\"url\":\"https:\/\/nel.heroku.com\/reports?ts=1708775756&sid=c4c9725f-1ab0-44d8-820f-430df2718e11&s=m1tAIRrh2LwfD8x6A%2B3NhvkvsKLIexSqIa2LWRDpe9o%3D\"}]}\n1 < Reporting-Endpoints: heroku-nel=https:\/\/nel.heroku.com\/reports?ts=1708775756&sid=c4c9725f-1ab0-44d8-820f-430df2718e11&s=m1tAIRrh2LwfD8x6A%2B3NhvkvsKLIexSqIa2LWRDpe9o%3D\n1 < Nel: {\"report_to\":\"heroku-nel\",\"max_age\":3600,\"success_fraction\":0.005,\"failure_fraction\":0.05,\"response_headers\":[\"Via\"]}\n1 < X-Powered-By: Express\n1 < Access-Control-Allow-Origin: *\n1 < Etag: W\/\"50-+o2yp51LQIMNctkD7OyFAsCHBik\"\n1 < Via: 1.1 vegur\n1 < CF-Cache-Status: DYNAMIC\n1 < Vary: Accept-Encoding\n1 < Server: cloudflare\n1 < CF-RAY: 85a785bd0ba53187-BOM\n{\"name\":\"morpheus\",\"job\":\"zion resident\",\"updatedAt\":\"2024-02-24T11:55:56.533Z\"}\n\n"},{"result":{"nanos":9600,"millis":0.0096,"status":"passed"},"step":{"line":40,"prefix":"Then","index":3,"text":"status 200"}},{"result":{"nanos":419800,"millis":0.4198,"status":"passed"},"step":{"line":41,"prefix":"And","index":4,"text":"print response"},"stepLog":"17:25:56.943 [print] {\n  \"name\": \"morpheus\",\n  \"job\": \"zion resident\",\n  \"updatedAt\": \"2024-02-24T11:55:56.533Z\"\n}\n \n"},{"result":{"nanos":4574600,"errorMessage":"match failed: EQUALS\n  $ | data types don't match (STRING:BOOLEAN)\n  'morpheus'\n  false\n\nsrc\/test\/java\/feature\/demoApi.feature:42","millis":4.5746,"status":"failed"},"step":{"line":42,"prefix":"And","index":5,"text":"match $.name == !'Komal'"},"stepLog":"17:25:56.950 src\/test\/java\/feature\/demoApi.feature:42\nAnd match $.name == !'Komal'\nmatch failed: EQUALS\n  $ | data types don't match (STRING:BOOLEAN)\n  'morpheus'\n  false\n\nsrc\/test\/java\/feature\/demoApi.feature:42\n"},{"result":{"nanos":0,"millis":0.0,"status":"skipped"},"step":{"line":43,"prefix":"And","index":6,"text":"match $.job == !'Tester'"}}],"line":30,"description":"","durationMillis":679.7533,"failed":true,"error":"match failed: EQUALS\n  $ | data types don't match (STRING:BOOLEAN)\n  'morpheus'\n  false\n\nsrc\/test\/java\/feature\/demoApi.feature:42","executorName":"main","name":"put user","startTime":1708775756268,"refId":"[3:30]","endTime":1708775756951,"exampleIndex":-1},{"sectionIndex":3,"stepResults":[{"result":{"nanos":141100,"millis":0.1411,"status":"passed"},"step":{"background":true,"line":3,"prefix":"*","index":0,"text":"url 'https:\/\/reqres.in\/'"}},{"result":{"nanos":113200,"millis":0.1132,"status":"passed"},"step":{"background":true,"line":4,"prefix":"*","index":1,"text":"header Accept = 'application\/json'"}},{"result":{"nanos":72100,"millis":0.0721,"status":"passed"},"step":{"line":46,"prefix":"Given","index":0,"text":"path 'api\/users\/2'"}},{"result":{"nanos":143760700,"millis":143.7607,"status":"passed"},"step":{"line":47,"prefix":"When","index":1,"text":"method get"},"stepLog":"17:25:56.959 request:\n1 > GET https:\/\/reqres.in\/api\/users\/2\n1 > Accept: application\/json\n1 > Host: reqres.in\n1 > Connection: Keep-Alive\n1 > User-Agent: Apache-HttpClient\/4.5.14 (Java\/17.0.9)\n1 > Accept-Encoding: gzip,deflate\n\n\n17:25:57.099 response time in milliseconds: 139\n1 < 200\n1 < Date: Sat, 24 Feb 2024 11:55:56 GMT\n1 < Content-Type: application\/json; charset=utf-8\n1 < Transfer-Encoding: chunked\n1 < Connection: keep-alive\n1 < Report-To: {\"group\":\"heroku-nel\",\"max_age\":3600,\"endpoints\":[{\"url\":\"https:\/\/nel.heroku.com\/reports?ts=1708762470&sid=c4c9725f-1ab0-44d8-820f-430df2718e11&s=eut%2FJ%2B9VbklPlW2zLK4CPQhiKUQK%2B51VvoEkWl%2FklB8%3D\"}]}\n1 < Reporting-Endpoints: heroku-nel=https:\/\/nel.heroku.com\/reports?ts=1708762470&sid=c4c9725f-1ab0-44d8-820f-430df2718e11&s=eut%2FJ%2B9VbklPlW2zLK4CPQhiKUQK%2B51VvoEkWl%2FklB8%3D\n1 < Nel: {\"report_to\":\"heroku-nel\",\"max_age\":3600,\"success_fraction\":0.005,\"failure_fraction\":0.05,\"response_headers\":[\"Via\"]}\n1 < X-Powered-By: Express\n1 < Access-Control-Allow-Origin: *\n1 < Etag: W\/\"118-pbdwwFo9SKNhD3Lx5iHJyngpq00\"\n1 < Via: 1.1 vegur\n1 < Cache-Control: max-age=14400\n1 < CF-Cache-Status: HIT\n1 < Age: 5996\n1 < Vary: Accept-Encoding\n1 < Server: cloudflare\n1 < CF-RAY: 85a785c10bc88606-BOM\n{\"data\":{\"id\":2,\"email\":\"janet.weaver@reqres.in\",\"first_name\":\"Janet\",\"last_name\":\"Weaver\",\"avatar\":\"https:\/\/reqres.in\/img\/faces\/2-image.jpg\"},\"support\":{\"url\":\"https:\/\/reqres.in\/#support-heading\",\"text\":\"To keep ReqRes free, contributions towards server costs are appreciated!\"}}\n\n"},{"result":{"nanos":7300,"millis":0.0073,"status":"passed"},"step":{"line":48,"prefix":"Then","index":2,"text":"status 200"}},{"result":{"nanos":372400,"millis":0.3724,"status":"passed"},"step":{"line":49,"prefix":"And","index":3,"text":"print response"},"stepLog":"17:25:57.100 [print] {\n  \"data\": {\n    \"id\": 2,\n    \"email\": \"janet.weaver@reqres.in\",\n    \"first_name\": \"Janet\",\n    \"last_name\": \"Weaver\",\n    \"avatar\": \"https:\/\/reqres.in\/img\/faces\/2-image.jpg\"\n  },\n  \"support\": {\n    \"url\": \"https:\/\/reqres.in\/#support-heading\",\n    \"text\": \"To keep ReqRes free, contributions towards server costs are appreciated!\"\n  }\n}\n \n"},{"result":{"nanos":383500,"millis":0.3835,"status":"passed"},"step":{"line":50,"prefix":"And","index":4,"text":"match $.data.id == '#present'"}}],"executorName":"main","line":45,"name":"get single user","description":"","durationMillis":144.8503,"startTime":1708775756956,"failed":false,"refId":"[4:45]","endTime":1708775757101,"exampleIndex":-1},{"sectionIndex":4,"stepResults":[{"result":{"nanos":102100,"millis":0.1021,"status":"passed"},"step":{"background":true,"line":3,"prefix":"*","index":0,"text":"url 'https:\/\/reqres.in\/'"}},{"result":{"nanos":71200,"millis":0.0712,"status":"passed"},"step":{"background":true,"line":4,"prefix":"*","index":1,"text":"header Accept = 'application\/json'"}},{"result":{"nanos":11770800,"errorMessage":"js failed:\n>>>>\n01: 'api\/users\/' +$.data.id\n<<<<\norg.graalvm.polyglot.PolyglotException: ReferenceError: \"$\" is not defined\n- <js>.:program(Unnamed:1)\n\nsrc\/test\/java\/feature\/demoApi.feature:53","millis":11.7708,"status":"failed"},"step":{"line":53,"prefix":"Given","index":0,"text":"path 'api\/users\/' +$.data.id"},"stepLog":"17:25:57.116 src\/test\/java\/feature\/demoApi.feature:53\nGiven path 'api\/users\/' +$.data.id\njs failed:\n>>>>\n01: 'api\/users\/' +$.data.id\n<<<<\norg.graalvm.polyglot.PolyglotException: ReferenceError: \"$\" is not defined\n- <js>.:program(Unnamed:1)\n\nsrc\/test\/java\/feature\/demoApi.feature:53\n"},{"result":{"nanos":0,"millis":0.0,"status":"skipped"},"step":{"line":54,"prefix":"When","index":1,"text":"method DELETE"}},{"result":{"nanos":0,"millis":0.0,"status":"skipped"},"step":{"line":55,"prefix":"Then","index":2,"text":"status 204"}},{"result":{"nanos":0,"millis":0.0,"status":"skipped"},"step":{"line":56,"prefix":"And","index":3,"text":"print response"}}],"line":52,"description":"","durationMillis":11.9441,"failed":true,"error":"js failed:\n>>>>\n01: 'api\/users\/' +$.data.id\n<<<<\norg.graalvm.polyglot.PolyglotException: ReferenceError: \"$\" is not defined\n- <js>.:program(Unnamed:1)\n\nsrc\/test\/java\/feature\/demoApi.feature:53","executorName":"main","name":"delete bookings ID 1","startTime":1708775757103,"refId":"[5:52]","endTime":1708775757116,"exampleIndex":-1}],"callDepth":0,"name":"check all users","description":"","resultDate":"2024-02-24 05:25:57 pm","durationMillis":2801.0578,"passedCount":3}